<?xml version="1.0" encoding="UTF-8"?>
<svg xmlns="http://www.w3.org/2000/svg" xmlns:xlink="http://www.w3.org/1999/xlink" width="226.152pt" height="380.633pt" viewBox="0 0 226.152 380.633" version="1.2">
<defs>
<g>
<symbol overflow="visible" id="glyph0-0">
<path style="stroke:none;" d=""/>
</symbol>
<symbol overflow="visible" id="glyph0-1">
<path style="stroke:none;" d="M 2.046875 -7.875 L 2.046875 -2.4375 C 2.046875 -0.3125 3.765625 0.125 5.171875 0.125 C 6.6875 0.125 7.578125 -1.015625 7.578125 -2.453125 L 7.578125 -3.515625 L 6.640625 -3.515625 L 6.640625 -2.5 C 6.640625 -1.15625 6.015625 -0.671875 5.453125 -0.671875 C 4.3125 -0.671875 4.3125 -1.9375 4.3125 -2.40625 L 4.3125 -7.875 L 7.203125 -7.875 L 7.203125 -8.8125 L 4.3125 -8.8125 L 4.3125 -12.59375 L 3.375 -12.59375 C 3.359375 -10.609375 2.375 -8.65625 0.421875 -8.59375 L 0.421875 -7.875 Z M 2.046875 -7.875 "/>
</symbol>
<symbol overflow="visible" id="glyph0-2">
<path style="stroke:none;" d="M 4.03125 -6.6875 L 4.03125 -8.9375 L 0.734375 -8.765625 L 0.734375 -7.84375 C 1.96875 -7.84375 2.109375 -7.84375 2.109375 -7.0625 L 2.109375 -0.9375 L 0.734375 -0.9375 L 0.734375 0 C 1.421875 -0.015625 2.328125 -0.0625 3.234375 -0.0625 C 3.984375 -0.0625 5.265625 -0.0625 5.96875 0 L 5.96875 -0.9375 L 4.25 -0.9375 L 4.25 -4.40625 C 4.25 -5.796875 4.75 -8.21875 6.734375 -8.21875 C 6.703125 -8.203125 6.34375 -7.875 6.34375 -7.296875 C 6.34375 -6.484375 6.984375 -6.09375 7.5625 -6.09375 C 8.140625 -6.09375 8.765625 -6.515625 8.765625 -7.296875 C 8.765625 -8.359375 7.703125 -8.9375 6.671875 -8.9375 C 5.28125 -8.9375 4.484375 -7.9375 4.03125 -6.6875 Z M 4.03125 -6.6875 "/>
</symbol>
<symbol overflow="visible" id="glyph0-3">
<path style="stroke:none;" d="M 4.40625 -13.46875 C 4.234375 -13.6875 3.984375 -13.96875 3.515625 -13.96875 C 2.875 -13.96875 2.328125 -13.359375 2.328125 -12.734375 C 2.328125 -12.078125 2.921875 -11.765625 2.953125 -11.75 L 6.078125 -10.09375 L 6.671875 -10.828125 Z M 4.40625 -13.46875 "/>
</symbol>
<symbol overflow="visible" id="glyph0-4">
<path style="stroke:none;" d="M 9.171875 -4.328125 C 9.609375 -4.328125 9.796875 -4.328125 9.796875 -4.859375 C 9.796875 -5.484375 9.6875 -6.921875 8.6875 -7.921875 C 7.953125 -8.625 6.90625 -8.984375 5.53125 -8.984375 C 2.359375 -8.984375 0.640625 -6.953125 0.640625 -4.46875 C 0.640625 -1.8125 2.625 0.125 5.8125 0.125 C 8.953125 0.125 9.796875 -1.984375 9.796875 -2.328125 C 9.796875 -2.671875 9.421875 -2.671875 9.328125 -2.671875 C 8.984375 -2.671875 8.953125 -2.578125 8.828125 -2.265625 C 8.40625 -1.3125 7.28125 -0.671875 6 -0.671875 C 3.1875 -0.671875 3.171875 -3.3125 3.171875 -4.328125 Z M 3.171875 -4.984375 C 3.21875 -5.75 3.234375 -6.59375 3.65625 -7.25 C 4.171875 -8.03125 4.96875 -8.28125 5.53125 -8.28125 C 7.859375 -8.28125 7.890625 -5.671875 7.921875 -4.984375 Z M 3.171875 -4.984375 "/>
</symbol>
<symbol overflow="visible" id="glyph0-5">
<path style="stroke:none;" d="M 4.1875 -5.828125 C 3.453125 -5.96875 2.15625 -6.1875 2.15625 -7.125 C 2.15625 -8.359375 4.015625 -8.359375 4.390625 -8.359375 C 5.875 -8.359375 6.625 -7.78125 6.734375 -6.6875 C 6.75 -6.390625 6.765625 -6.296875 7.1875 -6.296875 C 7.65625 -6.296875 7.65625 -6.390625 7.65625 -6.84375 L 7.65625 -8.4375 C 7.65625 -8.8125 7.65625 -8.984375 7.296875 -8.984375 C 7.21875 -8.984375 7.1875 -8.984375 6.40625 -8.609375 C 5.890625 -8.875 5.203125 -8.984375 4.40625 -8.984375 C 3.8125 -8.984375 0.75 -8.984375 0.75 -6.390625 C 0.75 -5.59375 1.15625 -5.0625 1.546875 -4.71875 C 2.34375 -4.03125 3.09375 -3.90625 4.625 -3.625 C 5.34375 -3.515625 6.828125 -3.25 6.828125 -2.078125 C 6.828125 -0.59375 5 -0.59375 4.5625 -0.59375 C 2.453125 -0.59375 1.9375 -2.046875 1.703125 -2.890625 C 1.609375 -3.171875 1.515625 -3.171875 1.234375 -3.171875 C 0.75 -3.171875 0.75 -3.0625 0.75 -2.59375 L 0.75 -0.4375 C 0.75 -0.0625 0.75 0.125 1.109375 0.125 C 1.25 0.125 1.296875 0.125 1.703125 -0.171875 C 1.71875 -0.171875 2.15625 -0.46875 2.21875 -0.515625 C 3.140625 0.125 4.171875 0.125 4.5625 0.125 C 5.171875 0.125 8.234375 0.125 8.234375 -2.78125 C 8.234375 -3.625 7.84375 -4.328125 7.140625 -4.875 C 6.375 -5.453125 5.734375 -5.578125 4.1875 -5.828125 Z M 4.1875 -5.828125 "/>
</symbol>
<symbol overflow="visible" id="glyph0-6">
<path style="stroke:none;" d="M 4.25 -7.953125 L 4.25 -13.765625 L 0.734375 -13.609375 L 0.734375 -12.6875 C 1.96875 -12.6875 2.109375 -12.6875 2.109375 -11.90625 L 2.109375 0 L 3.03125 0 L 4.015625 -1.109375 C 4.171875 -0.953125 5.140625 0.125 6.90625 0.125 C 9.859375 0.125 11.90625 -1.671875 11.90625 -4.421875 C 11.90625 -7.0625 10.046875 -8.9375 7.15625 -8.9375 C 5.71875 -8.9375 4.71875 -8.359375 4.25 -7.953125 Z M 4.359375 -1.96875 L 4.359375 -6.953125 C 4.90625 -7.640625 5.859375 -8.21875 6.953125 -8.21875 C 9.359375 -8.21875 9.359375 -5.8125 9.359375 -4.421875 C 9.359375 -3.5 9.359375 -2.40625 8.84375 -1.625 C 8.28125 -0.8125 7.359375 -0.59375 6.734375 -0.59375 C 5.34375 -0.59375 4.5625 -1.671875 4.359375 -1.96875 Z M 4.359375 -1.96875 "/>
</symbol>
<symbol overflow="visible" id="glyph0-7">
<path style="stroke:none;" d="M 10.75 -4.328125 C 10.75 -6.984375 8.9375 -8.984375 5.6875 -8.984375 C 2.4375 -8.984375 0.640625 -6.96875 0.640625 -4.328125 C 0.640625 -1.859375 2.375 0.125 5.6875 0.125 C 9.03125 0.125 10.75 -1.890625 10.75 -4.328125 Z M 5.6875 -0.671875 C 3.171875 -0.671875 3.171875 -2.8125 3.171875 -4.546875 C 3.171875 -5.4375 3.171875 -6.453125 3.515625 -7.125 C 3.890625 -7.859375 4.71875 -8.28125 5.6875 -8.28125 C 6.53125 -8.28125 7.359375 -7.953125 7.796875 -7.265625 C 8.21875 -6.59375 8.21875 -5.5 8.21875 -4.546875 C 8.21875 -2.8125 8.21875 -0.671875 5.6875 -0.671875 Z M 5.6875 -0.671875 "/>
</symbol>
<symbol overflow="visible" id="glyph0-8">
<path style="stroke:none;" d="M 2.265625 -7.0625 L 2.265625 -0.9375 L 0.890625 -0.9375 L 0.890625 0 C 1.453125 -0.015625 2.640625 -0.0625 3.390625 -0.0625 C 4.171875 -0.0625 5.34375 -0.015625 5.890625 0 L 5.890625 -0.9375 L 4.53125 -0.9375 L 4.53125 -5.078125 C 4.53125 -7.25 6.234375 -8.21875 7.484375 -8.21875 C 8.15625 -8.21875 8.578125 -7.796875 8.578125 -6.296875 L 8.578125 -0.9375 L 7.203125 -0.9375 L 7.203125 0 C 7.765625 -0.015625 8.953125 -0.0625 9.703125 -0.0625 C 10.484375 -0.0625 11.640625 -0.015625 12.203125 0 L 12.203125 -0.9375 L 10.828125 -0.9375 L 10.828125 -6.078125 C 10.828125 -8.15625 9.765625 -8.9375 7.78125 -8.9375 C 5.875 -8.9375 4.828125 -7.796875 4.3125 -6.78125 L 4.3125 -8.9375 L 0.890625 -8.765625 L 0.890625 -7.84375 C 2.125 -7.84375 2.265625 -7.84375 2.265625 -7.0625 Z M 2.265625 -7.0625 "/>
</symbol>
<symbol overflow="visible" id="glyph0-9">
<path style="stroke:none;" d="M 2.265625 -7.0625 L 2.265625 -0.9375 L 0.890625 -0.9375 L 0.890625 0 C 1.453125 -0.015625 2.640625 -0.0625 3.390625 -0.0625 C 4.171875 -0.0625 5.34375 -0.015625 5.890625 0 L 5.890625 -0.9375 L 4.53125 -0.9375 L 4.53125 -5.078125 C 4.53125 -7.25 6.25 -8.21875 7.484375 -8.21875 C 8.15625 -8.21875 8.59375 -7.8125 8.59375 -6.296875 L 8.59375 -0.9375 L 7.21875 -0.9375 L 7.21875 0 C 7.78125 -0.015625 8.96875 -0.0625 9.71875 -0.0625 C 10.5 -0.0625 11.671875 -0.015625 12.21875 0 L 12.21875 -0.9375 L 10.859375 -0.9375 L 10.859375 -5.078125 C 10.859375 -7.25 12.578125 -8.21875 13.8125 -8.21875 C 14.484375 -8.21875 14.921875 -7.8125 14.921875 -6.296875 L 14.921875 -0.9375 L 13.546875 -0.9375 L 13.546875 0 C 14.109375 -0.015625 15.296875 -0.0625 16.046875 -0.0625 C 16.828125 -0.0625 18 -0.015625 18.546875 0 L 18.546875 -0.9375 L 17.1875 -0.9375 L 17.1875 -6.078125 C 17.1875 -8.109375 16.171875 -8.9375 14.125 -8.9375 C 12.328125 -8.9375 11.296875 -7.9375 10.78125 -7.03125 C 10.375 -8.875 8.546875 -8.9375 7.796875 -8.9375 C 6.078125 -8.9375 4.9375 -8.03125 4.3125 -6.78125 L 4.3125 -8.9375 L 0.890625 -8.765625 L 0.890625 -7.84375 C 2.125 -7.84375 2.265625 -7.84375 2.265625 -7.0625 Z M 2.265625 -7.0625 "/>
</symbol>
<symbol overflow="visible" id="glyph0-10">
<path style="stroke:none;" d="M 10.046875 -7.46875 C 10.1875 -7.734375 10.234375 -7.875 11.515625 -7.875 L 11.515625 -8.8125 C 11.03125 -8.765625 10.4375 -8.75 9.9375 -8.75 C 9.453125 -8.75 8.546875 -8.796875 8.140625 -8.8125 L 8.140625 -7.875 C 8.171875 -7.875 9.0625 -7.875 9.0625 -7.640625 C 9.0625 -7.625 8.984375 -7.421875 8.96875 -7.40625 L 6.6875 -2.515625 L 4.171875 -7.875 L 5.234375 -7.875 L 5.234375 -8.8125 C 4.578125 -8.765625 2.796875 -8.75 2.78125 -8.75 C 2.21875 -8.75 1.328125 -8.796875 0.515625 -8.8125 L 0.515625 -7.875 L 1.78125 -7.875 L 5.5 0 L 5.046875 0.953125 C 4.609375 1.90625 3.96875 3.25 2.5625 3.25 C 2.28125 3.25 2.25 3.234375 2.078125 3.171875 C 2.265625 3.09375 2.71875 2.8125 2.71875 2.125 C 2.71875 1.46875 2.25 1 1.5625 1 C 1.015625 1 0.4375 1.375 0.4375 2.140625 C 0.4375 3.15625 1.375 3.96875 2.5625 3.96875 C 4.09375 3.96875 5.234375 2.734375 5.78125 1.609375 Z M 10.046875 -7.46875 "/>
</symbol>
<symbol overflow="visible" id="glyph0-11">
<path style="stroke:none;" d="M 8.3125 -11.703125 C 8.625 -11.890625 9.0625 -12.109375 9.0625 -12.734375 C 9.0625 -13.359375 8.515625 -13.96875 7.875 -13.96875 C 7.421875 -13.96875 7.1875 -13.71875 6.953125 -13.453125 C 6.421875 -12.875 5.21875 -11.40625 4.71875 -10.828125 L 5.3125 -10.09375 Z M 8.3125 -11.703125 "/>
</symbol>
<symbol overflow="visible" id="glyph0-12">
<path style="stroke:none;" d="M 8.296875 -0.859375 L 8.296875 0.125 L 11.921875 0 L 11.921875 -0.9375 C 10.703125 -0.9375 10.5625 -0.9375 10.5625 -1.703125 L 10.5625 -13.765625 L 7.046875 -13.609375 L 7.046875 -12.6875 C 8.28125 -12.6875 8.40625 -12.6875 8.40625 -11.90625 L 8.40625 -8.03125 C 7.421875 -8.8125 6.390625 -8.9375 5.734375 -8.9375 C 2.84375 -8.9375 0.75 -7.1875 0.75 -4.390625 C 0.75 -1.765625 2.578125 0.125 5.515625 0.125 C 6.734375 0.125 7.671875 -0.359375 8.296875 -0.859375 Z M 8.296875 -7 L 8.296875 -2.046875 C 8.03125 -1.6875 7.21875 -0.59375 5.71875 -0.59375 C 3.296875 -0.59375 3.296875 -3 3.296875 -4.390625 C 3.296875 -5.34375 3.296875 -6.40625 3.8125 -7.1875 C 4.390625 -8.015625 5.3125 -8.21875 5.9375 -8.21875 C 7.0625 -8.21875 7.859375 -7.578125 8.296875 -7 Z M 8.296875 -7 "/>
</symbol>
<symbol overflow="visible" id="glyph0-13">
<path style="stroke:none;" d="M 4.4375 -8.9375 L 1 -8.765625 L 1 -7.84375 C 2.15625 -7.84375 2.296875 -7.84375 2.296875 -7.0625 L 2.296875 -0.9375 L 0.9375 -0.9375 L 0.9375 0 C 1.546875 -0.015625 2.515625 -0.0625 3.359375 -0.0625 C 3.953125 -0.0625 4.96875 -0.015625 5.671875 0 L 5.671875 -0.9375 L 4.4375 -0.9375 Z M 4.640625 -12.25 C 4.640625 -13.109375 3.921875 -13.796875 3.09375 -13.796875 C 2.25 -13.796875 1.546875 -13.09375 1.546875 -12.25 C 1.546875 -11.390625 2.25 -10.703125 3.09375 -10.703125 C 3.921875 -10.703125 4.640625 -11.375 4.640625 -12.25 Z M 4.640625 -12.25 "/>
</symbol>
<symbol overflow="visible" id="glyph0-14">
<path style="stroke:none;" d="M 7.140625 -8.078125 C 6.78125 -7.765625 6.75 -7.34375 6.75 -7.15625 C 6.75 -6.296875 7.4375 -5.90625 7.984375 -5.90625 C 8.59375 -5.90625 9.234375 -6.328125 9.234375 -7.15625 C 9.234375 -8.875 6.921875 -8.984375 5.78125 -8.984375 C 2.21875 -8.984375 0.75 -6.703125 0.75 -4.40625 C 0.75 -1.765625 2.625 0.125 5.671875 0.125 C 8.890625 0.125 9.484375 -2.1875 9.484375 -2.328125 C 9.484375 -2.59375 9.203125 -2.59375 9.015625 -2.59375 C 8.65625 -2.59375 8.625 -2.5625 8.53125 -2.296875 C 8.015625 -1.046875 7.0625 -0.671875 6.046875 -0.671875 C 3.296875 -0.671875 3.296875 -3.59375 3.296875 -4.5 C 3.296875 -5.609375 3.296875 -8.203125 5.859375 -8.203125 C 6.546875 -8.203125 6.890625 -8.140625 7.140625 -8.078125 Z M 7.140625 -8.078125 "/>
</symbol>
<symbol overflow="visible" id="glyph0-15">
<path style="stroke:none;" d="M 7.421875 -1.53125 C 7.421875 -0.90625 7.421875 0 9.484375 0 L 10.4375 0 C 10.828125 0 11.078125 0 11.078125 -0.46875 C 11.078125 -0.9375 10.8125 -0.9375 10.5625 -0.9375 C 9.34375 -0.953125 9.34375 -1.203125 9.34375 -1.671875 L 9.34375 -5.9375 C 9.34375 -7.703125 7.9375 -8.984375 4.984375 -8.984375 C 3.84375 -8.984375 1.421875 -8.90625 1.421875 -7.15625 C 1.421875 -6.296875 2.125 -5.90625 2.65625 -5.90625 C 3.28125 -5.90625 3.90625 -6.328125 3.90625 -7.15625 C 3.90625 -7.765625 3.53125 -8.09375 3.46875 -8.140625 C 4.03125 -8.25 4.65625 -8.28125 4.90625 -8.28125 C 6.390625 -8.28125 7.078125 -7.4375 7.078125 -5.9375 L 7.078125 -5.265625 C 5.671875 -5.203125 0.640625 -5.015625 0.640625 -2.140625 C 0.640625 -0.234375 3.09375 0.125 4.46875 0.125 C 6.046875 0.125 6.984375 -0.6875 7.421875 -1.53125 Z M 7.078125 -4.640625 L 7.078125 -2.765625 C 7.078125 -0.859375 5.265625 -0.59375 4.765625 -0.59375 C 3.75 -0.59375 2.953125 -1.296875 2.953125 -2.15625 C 2.953125 -4.3125 6.09375 -4.578125 7.078125 -4.640625 Z M 7.078125 -4.640625 "/>
</symbol>
<symbol overflow="visible" id="glyph0-16">
<path style="stroke:none;" d="M 8.6875 -1.421875 L 8.6875 0.125 L 12.203125 0 L 12.203125 -0.9375 C 10.96875 -0.9375 10.828125 -0.9375 10.828125 -1.703125 L 10.828125 -8.9375 L 7.203125 -8.765625 L 7.203125 -7.84375 C 8.4375 -7.84375 8.578125 -7.84375 8.578125 -7.0625 L 8.578125 -3.28125 C 8.578125 -1.640625 7.5625 -0.59375 6.109375 -0.59375 C 4.578125 -0.59375 4.53125 -1.09375 4.53125 -2.15625 L 4.53125 -8.9375 L 0.890625 -8.765625 L 0.890625 -7.84375 C 2.125 -7.84375 2.265625 -7.84375 2.265625 -7.0625 L 2.265625 -2.4375 C 2.265625 -0.3125 3.875 0.125 5.828125 0.125 C 6.34375 0.125 7.78125 0.125 8.6875 -1.421875 Z M 8.6875 -1.421875 "/>
</symbol>
<symbol overflow="visible" id="glyph0-17">
<path style="stroke:none;" d="M 10.046875 -7.46875 C 10.15625 -7.734375 10.234375 -7.875 11.515625 -7.875 L 11.515625 -8.8125 C 11.015625 -8.765625 10.4375 -8.75 9.9375 -8.75 C 9.453125 -8.75 8.546875 -8.796875 8.140625 -8.8125 L 8.140625 -7.875 C 8.515625 -7.875 9.09375 -7.8125 9.09375 -7.65625 C 9.09375 -7.640625 9.0625 -7.59375 8.984375 -7.421875 L 6.6875 -2.453125 L 4.171875 -7.875 L 5.234375 -7.875 L 5.234375 -8.8125 C 4.578125 -8.765625 2.796875 -8.75 2.78125 -8.75 C 2.21875 -8.75 1.328125 -8.796875 0.515625 -8.8125 L 0.515625 -7.875 L 1.78125 -7.875 L 5.265625 -0.421875 C 5.5 0.078125 5.75 0.078125 6.015625 0.078125 C 6.34375 0.078125 6.546875 0.015625 6.75 -0.390625 Z M 10.046875 -7.46875 "/>
</symbol>
</g>
<clipPath id="clip2">
  <path d="M 0.667969 0.140625 L 31 0.140625 L 31 19 L 0.667969 19 Z M 0.667969 0.140625 "/>
</clipPath>
<clipPath id="clip3">
  <path d="M 30 3 L 41.753906 3 L 41.753906 16 L 30 16 Z M 30 3 "/>
</clipPath>
<clipPath id="clip4">
  <path d="M 0.667969 24 L 31 24 L 31 43 L 0.667969 43 Z M 0.667969 24 "/>
</clipPath>
<clipPath id="clip5">
  <path d="M 30 27 L 41.753906 27 L 41.753906 40 L 30 40 Z M 30 27 "/>
</clipPath>
<clipPath id="clip6">
  <path d="M 0.667969 48 L 31 48 L 31 67 L 0.667969 67 Z M 0.667969 48 "/>
</clipPath>
<clipPath id="clip7">
  <path d="M 30 51 L 41.753906 51 L 41.753906 64 L 30 64 Z M 30 51 "/>
</clipPath>
<clipPath id="clip1">
  <rect x="0" y="0" width="42" height="67"/>
</clipPath>
<g id="surface5" clip-path="url(#clip1)">
<g clip-path="url(#clip2)" clip-rule="nonzero">
<path style=" stroke:none;fill-rule:nonzero;fill:rgb(100%,100%,100%);fill-opacity:1;" d="M 27.585938 9.554688 C 27.585938 7.523438 28.390625 5.53125 29.921875 3.777344 L 30.53125 3.066406 C 29.25 2.863281 27.945312 2.738281 26.628906 2.6875 C 24.867188 1.78125 22.246094 0.710938 19.21875 0.367188 L 17.359375 0.140625 L 18.433594 3.449219 C 15.089844 4.207031 12.140625 5.742188 10.1875 6.796875 C 9.808594 6.585938 9.414062 6.382812 9 6.179688 C 5.8125 4.628906 2.371094 4.480469 2.226562 4.472656 L 0.667969 4.417969 L 0.882812 5.453125 C 0.90625 5.558594 1.425781 7.84375 3.421875 9.542969 C 1.425781 11.246094 0.90625 13.527344 0.882812 13.636719 L 0.667969 14.6875 L 2.226562 14.613281 C 2.371094 14.609375 5.8125 14.460938 9 12.910156 C 9.40625 12.710938 9.792969 12.507812 10.167969 12.300781 C 12.125 13.359375 15.074219 14.902344 18.421875 15.65625 L 17.359375 18.964844 L 19.21875 18.742188 C 22.226562 18.402344 24.84375 17.328125 26.601562 16.425781 C 27.9375 16.371094 29.261719 16.242188 30.558594 16.039062 L 29.925781 15.332031 C 28.394531 13.578125 27.585938 11.582031 27.585938 9.554688 Z M 27.585938 9.554688 "/>
<path style=" stroke:none;fill-rule:nonzero;fill:rgb(100%,100%,100%);fill-opacity:1;" d="M 17.359375 0.140625 L 19.21875 0.367188 C 22.246094 0.710938 24.867188 1.78125 26.628906 2.6875 C 27.945312 2.738281 29.25 2.863281 30.53125 3.066406 L 29.921875 3.777344 C 28.390625 5.53125 27.585938 7.523438 27.585938 9.554688 C 27.585938 11.582031 28.394531 13.578125 29.925781 15.332031 L 30.558594 16.039062 C 29.261719 16.242188 27.9375 16.371094 26.601562 16.425781 C 24.84375 17.328125 22.226562 18.402344 19.21875 18.742188 L 17.359375 18.964844 L 18.421875 15.65625 C 15.074219 14.902344 12.125 13.359375 10.167969 12.300781 C 9.792969 12.507812 9.40625 12.710938 9 12.910156 C 5.8125 14.460938 2.371094 14.609375 2.226562 14.613281 L 0.667969 14.6875 L 0.882812 13.636719 C 0.90625 13.527344 1.425781 11.246094 3.421875 9.542969 C 1.425781 7.84375 0.90625 5.558594 0.882812 5.453125 L 0.667969 4.417969 L 2.226562 4.472656 C 2.371094 4.480469 5.8125 4.628906 9 6.179688 C 9.414062 6.382812 9.808594 6.585938 10.1875 6.796875 C 12.140625 5.742188 15.089844 4.207031 18.433594 3.449219 Z M 18.003906 0.671875 L 18.859375 3.3125 L 19.011719 3.777344 L 18.53125 3.886719 C 15.828125 4.496094 13.503906 5.511719 10.398438 7.191406 L 10.183594 7.308594 L 9.96875 7.191406 C 9.597656 6.984375 9.210938 6.78125 8.804688 6.582031 C 7.445312 5.921875 5.9375 5.46875 4.394531 5.1875 C 3.84375 5.089844 3.324219 5.015625 2.855469 4.972656 C 2.558594 4.941406 2.335938 4.925781 2.210938 4.921875 L 1.222656 4.886719 L 1.320312 5.355469 C 1.335938 5.433594 1.375 5.574219 1.433594 5.757812 C 1.53125 6.054688 1.65625 6.375 1.816406 6.707031 C 2.265625 7.640625 2.886719 8.5 3.710938 9.203125 L 4.113281 9.542969 L 3.710938 9.886719 C 3.335938 10.207031 3 10.5625 2.699219 10.949219 C 2.238281 11.546875 1.878906 12.1875 1.617188 12.832031 C 1.523438 13.0625 1.449219 13.277344 1.390625 13.46875 C 1.371094 13.539062 1.351562 13.601562 1.339844 13.65625 C 1.324219 13.714844 1.332031 13.6875 1.320312 13.734375 L 1.222656 14.214844 L 2.210938 14.167969 C 2.335938 14.164062 2.558594 14.148438 2.855469 14.117188 C 3.324219 14.070312 3.84375 14 4.394531 13.902344 C 5.9375 13.621094 7.445312 13.167969 8.804688 12.507812 C 9.203125 12.3125 9.585938 12.113281 9.949219 11.910156 L 10.164062 11.789062 L 10.382812 11.90625 C 13.488281 13.589844 15.816406 14.609375 18.519531 15.21875 L 19 15.328125 L 18.851562 15.792969 L 18 18.4375 L 19.167969 18.296875 C 21.707031 18.007812 24.152344 17.179688 26.398438 16.023438 L 26.484375 15.980469 L 26.585938 15.976562 C 27.613281 15.929688 28.644531 15.859375 29.664062 15.710938 L 29.585938 15.628906 C 27.988281 13.792969 27.140625 11.695312 27.140625 9.554688 C 27.136719 7.410156 27.984375 5.316406 29.582031 3.484375 L 29.660156 3.394531 C 28.648438 3.234375 27.628906 3.1875 26.613281 3.132812 L 26.511719 3.128906 L 26.425781 3.085938 C 24.179688 1.933594 21.722656 1.101562 19.164062 0.8125 Z M 18.003906 0.671875 "/>
</g>
<g clip-path="url(#clip3)" clip-rule="nonzero">
<path style=" stroke:none;fill-rule:nonzero;fill:rgb(100%,100%,100%);fill-opacity:1;" d="M 40.757812 7.722656 C 40.289062 7.191406 39.433594 6.390625 38.015625 5.566406 C 36.542969 4.722656 34.859375 4.050781 33.039062 3.589844 L 32.144531 4.632812 C 29.496094 7.671875 29.492188 11.425781 32.136719 14.46875 L 33.078125 15.511719 C 34.878906 15.054688 36.546875 14.394531 38.007812 13.5625 C 40.554688 12.09375 41.753906 10.25 41.753906 9.554688 C 41.753906 8.894531 41.113281 8.125 40.757812 7.722656 Z M 34.050781 9.554688 C 33.34375 9.554688 32.765625 9.171875 32.765625 8.699219 C 32.765625 8.226562 33.34375 7.84375 34.050781 7.84375 C 34.761719 7.84375 35.335938 8.226562 35.335938 8.699219 C 35.335938 9.171875 34.761719 9.554688 34.050781 9.554688 Z M 34.050781 9.554688 "/>
<path style=" stroke:none;fill-rule:nonzero;fill:rgb(100%,100%,100%);fill-opacity:1;" d="M 33.039062 3.589844 C 34.859375 4.050781 36.542969 4.722656 38.015625 5.566406 C 39.433594 6.390625 40.289062 7.191406 40.757812 7.722656 C 41.113281 8.125 41.753906 8.894531 41.753906 9.554688 C 41.753906 10.25 40.554688 12.09375 38.007812 13.5625 C 36.546875 14.394531 34.878906 15.054688 33.078125 15.511719 L 32.136719 14.46875 C 29.492188 11.425781 29.496094 7.671875 32.144531 4.632812 Z M 33.195312 4.09375 L 32.480469 4.925781 C 29.980469 7.796875 29.976562 11.300781 32.46875 14.167969 L 33.226562 15.007812 C 34.824219 14.605469 36.34375 13.960938 37.785156 13.171875 C 38.910156 12.523438 39.835938 11.757812 40.496094 10.976562 C 41.011719 10.363281 41.308594 9.796875 41.308594 9.554688 C 41.246094 8.949219 40.804688 8.460938 40.425781 8.019531 C 39.679688 7.175781 38.75 6.535156 37.792969 5.957031 C 36.351562 5.128906 34.796875 4.53125 33.195312 4.09375 Z M 34.050781 7.394531 C 34.980469 7.394531 35.785156 7.929688 35.785156 8.699219 C 35.785156 9.464844 34.980469 10 34.050781 10 C 33.125 10 32.320312 9.464844 32.320312 8.699219 C 32.320312 7.929688 33.125 7.394531 34.050781 7.394531 Z M 34.050781 7.84375 C 33.34375 7.84375 32.765625 8.226562 32.765625 8.699219 C 32.765625 9.171875 33.34375 9.554688 34.050781 9.554688 C 34.761719 9.554688 35.335938 9.171875 35.335938 8.699219 C 35.335938 8.226562 34.761719 7.84375 34.050781 7.84375 Z M 34.050781 7.84375 "/>
</g>
<g clip-path="url(#clip4)" clip-rule="nonzero">
<path style=" stroke:none;fill-rule:nonzero;fill:rgb(100%,100%,100%);fill-opacity:1;" d="M 27.585938 33.570312 C 27.585938 31.542969 28.390625 29.550781 29.921875 27.792969 L 30.53125 27.085938 C 29.25 26.882812 27.945312 26.753906 26.628906 26.703125 C 24.867188 25.800781 22.246094 24.726562 19.21875 24.386719 L 17.359375 24.160156 L 18.433594 27.464844 C 15.089844 28.222656 12.140625 29.757812 10.1875 30.816406 C 9.808594 30.605469 9.414062 30.398438 9 30.199219 C 5.8125 28.648438 2.371094 28.496094 2.226562 28.492188 L 0.667969 28.4375 L 0.882812 29.46875 C 0.90625 29.578125 1.425781 31.863281 3.421875 33.5625 C 1.425781 35.261719 0.90625 37.546875 0.882812 37.65625 L 0.667969 38.707031 L 2.226562 38.632812 C 2.371094 38.625 5.8125 38.476562 9 36.925781 C 9.40625 36.730469 9.792969 36.527344 10.167969 36.316406 C 12.125 37.378906 15.074219 38.917969 18.421875 39.671875 L 17.359375 42.984375 L 19.21875 42.757812 C 22.226562 42.417969 24.84375 41.347656 26.601562 40.441406 C 27.9375 40.390625 29.261719 40.261719 30.558594 40.054688 L 29.925781 39.351562 C 28.394531 37.59375 27.585938 35.601562 27.585938 33.570312 Z M 27.585938 33.570312 "/>
<path style=" stroke:none;fill-rule:nonzero;fill:rgb(100%,100%,100%);fill-opacity:1;" d="M 17.359375 24.160156 L 19.21875 24.386719 C 22.246094 24.726562 24.867188 25.800781 26.628906 26.703125 C 27.945312 26.753906 29.25 26.882812 30.53125 27.085938 L 29.921875 27.792969 C 28.390625 29.550781 27.585938 31.542969 27.585938 33.570312 C 27.585938 35.601562 28.394531 37.59375 29.925781 39.351562 L 30.558594 40.054688 C 29.261719 40.261719 27.9375 40.390625 26.601562 40.441406 C 24.84375 41.347656 22.226562 42.417969 19.21875 42.757812 L 17.359375 42.984375 L 18.421875 39.671875 C 15.074219 38.917969 12.125 37.378906 10.167969 36.316406 C 9.792969 36.527344 9.40625 36.730469 9 36.925781 C 5.8125 38.476562 2.371094 38.625 2.226562 38.632812 L 0.667969 38.707031 L 0.882812 37.65625 C 0.90625 37.546875 1.425781 35.261719 3.421875 33.5625 C 1.425781 31.863281 0.90625 29.578125 0.882812 29.46875 L 0.667969 28.4375 L 2.226562 28.492188 C 2.371094 28.496094 5.8125 28.648438 9 30.199219 C 9.414062 30.398438 9.808594 30.605469 10.1875 30.816406 C 12.140625 29.757812 15.089844 28.222656 18.433594 27.464844 Z M 18.003906 24.6875 L 18.859375 27.328125 L 19.011719 27.796875 L 18.53125 27.902344 C 15.828125 28.515625 13.503906 29.527344 10.398438 31.210938 L 10.183594 31.328125 L 9.96875 31.207031 C 9.597656 31 9.210938 30.796875 8.804688 30.601562 C 7.445312 29.941406 5.9375 29.488281 4.394531 29.207031 C 3.84375 29.105469 3.324219 29.035156 2.855469 28.988281 C 2.558594 28.960938 2.335938 28.945312 2.210938 28.941406 L 1.222656 28.90625 L 1.320312 29.375 C 1.335938 29.453125 1.375 29.59375 1.433594 29.777344 C 1.53125 30.074219 1.65625 30.390625 1.816406 30.722656 C 2.265625 31.660156 2.886719 32.519531 3.710938 33.222656 L 4.113281 33.5625 L 3.710938 33.902344 C 3.335938 34.222656 3 34.582031 2.699219 34.96875 C 2.238281 35.566406 1.878906 36.207031 1.617188 36.851562 C 1.523438 37.078125 1.449219 37.292969 1.390625 37.488281 C 1.371094 37.558594 1.351562 37.621094 1.339844 37.675781 C 1.324219 37.730469 1.332031 37.707031 1.320312 37.753906 L 1.222656 38.230469 L 2.210938 38.183594 C 2.335938 38.179688 2.558594 38.164062 2.855469 38.136719 C 3.324219 38.089844 3.84375 38.019531 4.394531 37.917969 C 5.9375 37.636719 7.445312 37.183594 8.804688 36.523438 C 9.203125 36.328125 9.585938 36.132812 9.949219 35.925781 L 10.164062 35.808594 L 10.382812 35.925781 C 13.488281 37.609375 15.816406 38.625 18.519531 39.238281 L 19 39.34375 L 18.851562 39.8125 L 18 42.453125 L 19.167969 42.3125 C 21.707031 42.027344 24.152344 41.199219 26.398438 40.042969 L 26.484375 39.996094 L 26.585938 39.992188 C 27.613281 39.949219 28.644531 39.875 29.664062 39.730469 L 29.585938 39.644531 C 27.988281 37.8125 27.140625 35.714844 27.140625 33.570312 C 27.136719 31.429688 27.984375 29.332031 29.582031 27.503906 L 29.660156 27.414062 C 28.648438 27.25 27.628906 27.207031 26.613281 27.152344 L 26.511719 27.148438 L 26.425781 27.101562 C 24.179688 25.949219 21.722656 25.121094 19.164062 24.832031 Z M 18.003906 24.6875 "/>
</g>
<g clip-path="url(#clip5)" clip-rule="nonzero">
<path style=" stroke:none;fill-rule:nonzero;fill:rgb(100%,100%,100%);fill-opacity:1;" d="M 40.757812 31.738281 C 40.289062 31.210938 39.433594 30.40625 38.015625 29.585938 C 36.542969 28.738281 34.859375 28.070312 33.039062 27.605469 L 32.144531 28.652344 C 29.496094 31.691406 29.492188 35.445312 32.136719 38.484375 L 33.078125 39.53125 C 34.878906 39.074219 36.546875 38.414062 38.007812 37.578125 C 40.554688 36.109375 41.753906 34.265625 41.753906 33.570312 C 41.753906 32.914062 41.113281 32.140625 40.757812 31.738281 Z M 34.050781 33.570312 C 33.34375 33.570312 32.765625 33.1875 32.765625 32.714844 C 32.765625 32.242188 33.34375 31.859375 34.050781 31.859375 C 34.761719 31.859375 35.335938 32.242188 35.335938 32.714844 C 35.335938 33.1875 34.761719 33.570312 34.050781 33.570312 Z M 34.050781 33.570312 "/>
<path style=" stroke:none;fill-rule:nonzero;fill:rgb(100%,100%,100%);fill-opacity:1;" d="M 33.039062 27.605469 C 34.859375 28.070312 36.542969 28.738281 38.015625 29.585938 C 39.433594 30.40625 40.289062 31.210938 40.757812 31.738281 C 41.113281 32.140625 41.753906 32.914062 41.753906 33.570312 C 41.753906 34.265625 40.554688 36.109375 38.007812 37.578125 C 36.546875 38.414062 34.878906 39.074219 33.078125 39.53125 L 32.136719 38.484375 C 29.492188 35.445312 29.496094 31.691406 32.144531 28.652344 Z M 33.195312 28.113281 L 32.480469 28.945312 C 29.980469 31.816406 29.976562 35.316406 32.46875 38.183594 L 33.226562 39.027344 C 34.824219 38.625 36.34375 37.976562 37.785156 37.191406 C 38.910156 36.539062 39.835938 35.773438 40.496094 34.996094 C 41.011719 34.382812 41.308594 33.816406 41.308594 33.570312 C 41.246094 32.964844 40.804688 32.480469 40.425781 32.035156 C 39.679688 31.191406 38.75 30.550781 37.792969 29.972656 C 36.351562 29.144531 34.796875 28.546875 33.195312 28.113281 Z M 34.050781 31.410156 C 34.980469 31.410156 35.785156 31.949219 35.785156 32.714844 C 35.785156 33.484375 34.980469 34.019531 34.050781 34.019531 C 33.125 34.019531 32.320312 33.484375 32.320312 32.714844 C 32.320312 31.949219 33.125 31.410156 34.050781 31.410156 Z M 34.050781 31.859375 C 33.34375 31.859375 32.765625 32.242188 32.765625 32.714844 C 32.765625 33.1875 33.34375 33.570312 34.050781 33.570312 C 34.761719 33.570312 35.335938 33.1875 35.335938 32.714844 C 35.335938 32.242188 34.761719 31.859375 34.050781 31.859375 Z M 34.050781 31.859375 "/>
</g>
<g clip-path="url(#clip6)" clip-rule="nonzero">
<path style=" stroke:none;fill-rule:nonzero;fill:rgb(100%,100%,100%);fill-opacity:1;" d="M 27.585938 57.589844 C 27.585938 55.558594 28.390625 53.566406 29.921875 51.8125 L 30.53125 51.101562 C 29.25 50.902344 27.945312 50.773438 26.628906 50.722656 C 24.867188 49.816406 22.246094 48.746094 19.21875 48.402344 L 17.359375 48.175781 L 18.433594 51.484375 C 15.089844 52.242188 12.140625 53.777344 10.1875 54.832031 C 9.808594 54.621094 9.414062 54.417969 9 54.214844 C 5.8125 52.664062 2.371094 52.515625 2.226562 52.507812 L 0.667969 52.453125 L 0.882812 53.488281 C 0.90625 53.59375 1.425781 55.878906 3.421875 57.578125 C 1.425781 59.28125 0.90625 61.566406 0.882812 61.671875 L 0.667969 62.722656 L 2.226562 62.648438 C 2.371094 62.644531 5.8125 62.496094 9 60.945312 C 9.40625 60.746094 9.792969 60.542969 10.167969 60.335938 C 12.125 61.394531 15.074219 62.9375 18.421875 63.691406 L 17.359375 67 L 19.21875 66.777344 C 22.226562 66.4375 24.84375 65.363281 26.601562 64.460938 C 27.9375 64.40625 29.261719 64.277344 30.558594 64.074219 L 29.925781 63.367188 C 28.394531 61.613281 27.585938 59.617188 27.585938 57.589844 Z M 27.585938 57.589844 "/>
<path style=" stroke:none;fill-rule:nonzero;fill:rgb(100%,100%,100%);fill-opacity:1;" d="M 17.359375 48.175781 L 19.21875 48.402344 C 22.246094 48.746094 24.867188 49.816406 26.628906 50.722656 C 27.945312 50.773438 29.25 50.902344 30.53125 51.101562 L 29.921875 51.8125 C 28.390625 53.566406 27.585938 55.558594 27.585938 57.589844 C 27.585938 59.617188 28.394531 61.613281 29.925781 63.367188 L 30.558594 64.074219 C 29.261719 64.277344 27.9375 64.40625 26.601562 64.460938 C 24.84375 65.363281 22.226562 66.4375 19.21875 66.777344 L 17.359375 67 L 18.421875 63.691406 C 15.074219 62.9375 12.125 61.394531 10.167969 60.335938 C 9.792969 60.542969 9.40625 60.746094 9 60.945312 C 5.8125 62.496094 2.371094 62.644531 2.226562 62.648438 L 0.667969 62.722656 L 0.882812 61.671875 C 0.90625 61.566406 1.425781 59.28125 3.421875 57.578125 C 1.425781 55.878906 0.90625 53.59375 0.882812 53.488281 L 0.667969 52.453125 L 2.226562 52.507812 C 2.371094 52.515625 5.8125 52.664062 9 54.214844 C 9.414062 54.417969 9.808594 54.621094 10.1875 54.832031 C 12.140625 53.777344 15.089844 52.242188 18.433594 51.484375 Z M 18.003906 48.707031 L 18.859375 51.347656 L 19.011719 51.8125 L 18.53125 51.921875 C 15.828125 52.53125 13.503906 53.546875 10.398438 55.226562 L 10.183594 55.34375 L 9.96875 55.226562 C 9.597656 55.019531 9.210938 54.816406 8.804688 54.617188 C 7.445312 53.957031 5.9375 53.503906 4.394531 53.222656 C 3.84375 53.125 3.324219 53.054688 2.855469 53.007812 C 2.558594 52.976562 2.335938 52.960938 2.210938 52.957031 L 1.222656 52.921875 L 1.320312 53.390625 C 1.335938 53.46875 1.375 53.609375 1.433594 53.792969 C 1.53125 54.089844 1.65625 54.410156 1.816406 54.742188 C 2.265625 55.675781 2.886719 56.535156 3.710938 57.238281 L 4.113281 57.578125 L 3.710938 57.921875 C 3.335938 58.242188 3 58.597656 2.699219 58.984375 C 2.238281 59.582031 1.878906 60.222656 1.617188 60.867188 C 1.523438 61.097656 1.449219 61.3125 1.390625 61.503906 C 1.371094 61.574219 1.351562 61.636719 1.339844 61.691406 C 1.324219 61.75 1.332031 61.722656 1.320312 61.769531 L 1.222656 62.25 L 2.210938 62.203125 C 2.335938 62.199219 2.558594 62.183594 2.855469 62.152344 C 3.324219 62.105469 3.84375 62.035156 4.394531 61.9375 C 5.9375 61.65625 7.445312 61.203125 8.804688 60.542969 C 9.203125 60.347656 9.585938 60.148438 9.949219 59.945312 L 10.164062 59.824219 L 10.382812 59.941406 C 13.488281 61.625 15.816406 62.644531 18.519531 63.253906 L 19 63.363281 L 18.851562 63.828125 L 18 66.472656 L 19.167969 66.332031 C 21.707031 66.042969 24.152344 65.214844 26.398438 64.058594 L 26.484375 64.015625 L 26.585938 64.011719 C 27.613281 63.96875 28.644531 63.894531 29.664062 63.75 L 29.585938 63.664062 C 27.988281 61.828125 27.140625 59.730469 27.140625 57.589844 C 27.136719 55.449219 27.984375 53.351562 29.582031 51.519531 L 29.660156 51.429688 C 28.648438 51.269531 27.628906 51.222656 26.613281 51.167969 L 26.511719 51.164062 L 26.425781 51.121094 C 24.179688 49.96875 21.722656 49.136719 19.164062 48.847656 Z M 18.003906 48.707031 "/>
</g>
<g clip-path="url(#clip7)" clip-rule="nonzero">
<path style=" stroke:none;fill-rule:nonzero;fill:rgb(100%,100%,100%);fill-opacity:1;" d="M 40.757812 55.757812 C 40.289062 55.230469 39.433594 54.425781 38.015625 53.601562 C 36.542969 52.757812 34.859375 52.085938 33.039062 51.625 L 32.144531 52.667969 C 29.496094 55.707031 29.492188 59.460938 32.136719 62.503906 L 33.078125 63.550781 C 34.878906 63.089844 36.546875 62.429688 38.007812 61.597656 C 40.554688 60.128906 41.753906 58.285156 41.753906 57.589844 C 41.753906 56.929688 41.113281 56.160156 40.757812 55.757812 Z M 34.050781 57.589844 C 33.34375 57.589844 32.765625 57.207031 32.765625 56.734375 C 32.765625 56.261719 33.34375 55.878906 34.050781 55.878906 C 34.761719 55.878906 35.335938 56.261719 35.335938 56.734375 C 35.335938 57.207031 34.761719 57.589844 34.050781 57.589844 Z M 34.050781 57.589844 "/>
<path style=" stroke:none;fill-rule:nonzero;fill:rgb(100%,100%,100%);fill-opacity:1;" d="M 33.039062 51.625 C 34.859375 52.085938 36.542969 52.757812 38.015625 53.601562 C 39.433594 54.425781 40.289062 55.230469 40.757812 55.757812 C 41.113281 56.160156 41.753906 56.929688 41.753906 57.589844 C 41.753906 58.285156 40.554688 60.128906 38.007812 61.597656 C 36.546875 62.429688 34.878906 63.089844 33.078125 63.550781 L 32.136719 62.503906 C 29.492188 59.460938 29.496094 55.707031 32.144531 52.667969 Z M 33.195312 52.128906 L 32.480469 52.960938 C 29.980469 55.832031 29.976562 59.335938 32.46875 62.203125 L 33.226562 63.042969 C 34.824219 62.640625 36.34375 61.996094 37.785156 61.207031 C 38.910156 60.558594 39.835938 59.792969 40.496094 59.011719 C 41.011719 58.402344 41.308594 57.832031 41.308594 57.589844 C 41.246094 56.984375 40.804688 56.496094 40.425781 56.054688 C 39.679688 55.210938 38.75 54.570312 37.792969 53.992188 C 36.351562 53.164062 34.796875 52.566406 33.195312 52.128906 Z M 34.050781 55.429688 C 34.980469 55.429688 35.785156 55.964844 35.785156 56.734375 C 35.785156 57.5 34.980469 58.035156 34.050781 58.035156 C 33.125 58.035156 32.320312 57.5 32.320312 56.734375 C 32.320312 55.964844 33.125 55.429688 34.050781 55.429688 Z M 34.050781 55.878906 C 33.34375 55.878906 32.765625 56.261719 32.765625 56.734375 C 32.765625 57.207031 33.34375 57.589844 34.050781 57.589844 C 34.761719 57.589844 35.335938 57.207031 35.335938 56.734375 C 35.335938 56.261719 34.761719 55.878906 34.050781 55.878906 Z M 34.050781 55.878906 "/>
</g>
</g>
<filter id="alpha" filterUnits="objectBoundingBox" x="0%" y="0%" width="100%" height="100%">
  <feColorMatrix type="matrix" in="SourceGraphic" values="0 0 0 0 1 0 0 0 0 1 0 0 0 0 1 0 0 0 1 0"/>
</filter>
<mask id="mask0">
  <g filter="url(#alpha)">
<rect x="0" y="0" width="226.152" height="380.633" style="fill:rgb(0%,0%,0%);fill-opacity:0.45;stroke:none;"/>
  </g>
</mask>
<clipPath id="clip9">
  <path d="M 0.667969 0.589844 L 31 0.589844 L 31 20 L 0.667969 20 Z M 0.667969 0.589844 "/>
</clipPath>
<clipPath id="clip10">
  <path d="M 30 4 L 41.753906 4 L 41.753906 16 L 30 16 Z M 30 4 "/>
</clipPath>
<clipPath id="clip11">
  <path d="M 0.667969 24 L 31 24 L 31 43.433594 L 0.667969 43.433594 Z M 0.667969 24 "/>
</clipPath>
<clipPath id="clip12">
  <path d="M 30 28 L 41.753906 28 L 41.753906 40 L 30 40 Z M 30 28 "/>
</clipPath>
<clipPath id="clip8">
  <rect x="0" y="0" width="42" height="44"/>
</clipPath>
<g id="surface8" clip-path="url(#clip8)">
<g clip-path="url(#clip9)" clip-rule="nonzero">
<path style=" stroke:none;fill-rule:nonzero;fill:rgb(100%,100%,100%);fill-opacity:1;" d="M 27.585938 10.003906 C 27.585938 7.976562 28.390625 5.980469 29.921875 4.226562 L 30.53125 3.519531 C 29.25 3.316406 27.945312 3.1875 26.628906 3.136719 C 24.867188 2.230469 22.246094 1.160156 19.21875 0.820312 L 17.359375 0.589844 L 18.433594 3.898438 C 15.089844 4.65625 12.140625 6.191406 10.1875 7.25 C 9.808594 7.039062 9.414062 6.832031 9 6.628906 C 5.8125 5.078125 2.371094 4.929688 2.226562 4.925781 L 0.667969 4.871094 L 0.882812 5.902344 C 0.90625 6.007812 1.425781 8.296875 3.421875 9.996094 C 1.425781 11.695312 0.90625 13.980469 0.882812 14.089844 L 0.667969 15.136719 L 2.226562 15.066406 C 2.371094 15.058594 5.8125 14.910156 9 13.359375 C 9.40625 13.164062 9.792969 12.960938 10.167969 12.75 C 12.125 13.8125 15.074219 15.351562 18.421875 16.105469 L 17.359375 19.417969 L 19.21875 19.191406 C 22.226562 18.851562 24.84375 17.777344 26.601562 16.875 C 27.9375 16.824219 29.261719 16.691406 30.558594 16.488281 L 29.925781 15.78125 C 28.394531 14.027344 27.585938 12.035156 27.585938 10.003906 Z M 27.585938 10.003906 "/>
<path style=" stroke:none;fill-rule:nonzero;fill:rgb(100%,100%,100%);fill-opacity:1;" d="M 17.359375 0.589844 L 19.21875 0.820312 C 22.246094 1.160156 24.867188 2.230469 26.628906 3.136719 C 27.945312 3.1875 29.25 3.316406 30.53125 3.519531 L 29.921875 4.226562 C 28.390625 5.980469 27.585938 7.976562 27.585938 10.003906 C 27.585938 12.035156 28.394531 14.027344 29.925781 15.78125 L 30.558594 16.488281 C 29.261719 16.691406 27.9375 16.824219 26.601562 16.875 C 24.84375 17.777344 22.226562 18.851562 19.21875 19.191406 L 17.359375 19.417969 L 18.421875 16.105469 C 15.074219 15.351562 12.125 13.8125 10.167969 12.75 C 9.792969 12.960938 9.40625 13.164062 9 13.359375 C 5.8125 14.910156 2.371094 15.058594 2.226562 15.066406 L 0.667969 15.136719 L 0.882812 14.089844 C 0.90625 13.980469 1.425781 11.695312 3.421875 9.996094 C 1.425781 8.296875 0.90625 6.007812 0.882812 5.902344 L 0.667969 4.871094 L 2.226562 4.925781 C 2.371094 4.929688 5.8125 5.078125 9 6.628906 C 9.414062 6.832031 9.808594 7.039062 10.1875 7.25 C 12.140625 6.191406 15.089844 4.65625 18.433594 3.898438 Z M 18.003906 1.121094 L 18.859375 3.761719 L 19.011719 4.230469 L 18.53125 4.335938 C 15.828125 4.949219 13.503906 5.960938 10.398438 7.644531 L 10.183594 7.761719 L 9.96875 7.640625 C 9.597656 7.433594 9.210938 7.230469 8.804688 7.035156 C 7.445312 6.375 5.9375 5.921875 4.394531 5.640625 C 3.84375 5.539062 3.324219 5.46875 2.855469 5.421875 C 2.558594 5.394531 2.335938 5.378906 2.210938 5.375 L 1.222656 5.339844 L 1.320312 5.808594 C 1.335938 5.886719 1.375 6.027344 1.433594 6.207031 C 1.53125 6.503906 1.65625 6.824219 1.816406 7.15625 C 2.265625 8.089844 2.886719 8.953125 3.710938 9.652344 L 4.113281 9.996094 L 3.710938 10.335938 C 3.335938 10.65625 3 11.011719 2.699219 11.398438 C 2.238281 11.996094 1.878906 12.640625 1.617188 13.28125 C 1.523438 13.511719 1.449219 13.726562 1.390625 13.921875 C 1.371094 13.988281 1.351562 14.050781 1.339844 14.109375 C 1.324219 14.164062 1.332031 14.136719 1.320312 14.183594 L 1.222656 14.664062 L 2.210938 14.617188 C 2.335938 14.613281 2.558594 14.597656 2.855469 14.570312 C 3.324219 14.523438 3.84375 14.453125 4.394531 14.351562 C 5.9375 14.070312 7.445312 13.617188 8.804688 12.957031 C 9.203125 12.761719 9.585938 12.5625 9.949219 12.359375 L 10.164062 12.238281 L 10.382812 12.355469 C 13.488281 14.042969 15.816406 15.058594 18.519531 15.671875 L 19 15.777344 L 18.851562 16.246094 L 18 18.886719 L 19.167969 18.746094 C 21.707031 18.460938 24.152344 17.632812 26.398438 16.476562 L 26.484375 16.429688 L 26.585938 16.425781 C 27.613281 16.382812 28.644531 16.308594 29.664062 16.164062 L 29.585938 16.078125 C 27.988281 14.242188 27.140625 12.144531 27.140625 10.003906 C 27.136719 7.863281 27.984375 5.765625 29.582031 3.933594 L 29.660156 3.847656 C 28.648438 3.683594 27.628906 3.636719 26.613281 3.585938 L 26.511719 3.582031 L 26.425781 3.535156 C 24.179688 2.382812 21.722656 1.550781 19.164062 1.265625 Z M 18.003906 1.121094 "/>
</g>
<g clip-path="url(#clip10)" clip-rule="nonzero">
<path style=" stroke:none;fill-rule:nonzero;fill:rgb(100%,100%,100%);fill-opacity:1;" d="M 40.757812 8.171875 C 40.289062 7.644531 39.433594 6.839844 38.015625 6.019531 C 36.542969 5.171875 34.859375 4.503906 33.039062 4.039062 L 32.144531 5.082031 C 29.496094 8.125 29.492188 11.875 32.136719 14.917969 L 33.078125 15.964844 C 34.878906 15.507812 36.546875 14.847656 38.007812 14.011719 C 40.554688 12.542969 41.753906 10.699219 41.753906 10.003906 C 41.753906 9.347656 41.113281 8.574219 40.757812 8.171875 Z M 34.050781 10.003906 C 33.34375 10.003906 32.765625 9.621094 32.765625 9.148438 C 32.765625 8.675781 33.34375 8.292969 34.050781 8.292969 C 34.761719 8.292969 35.335938 8.675781 35.335938 9.148438 C 35.335938 9.621094 34.761719 10.003906 34.050781 10.003906 Z M 34.050781 10.003906 "/>
<path style=" stroke:none;fill-rule:nonzero;fill:rgb(100%,100%,100%);fill-opacity:1;" d="M 33.039062 4.039062 C 34.859375 4.503906 36.542969 5.171875 38.015625 6.019531 C 39.433594 6.839844 40.289062 7.644531 40.757812 8.171875 C 41.113281 8.574219 41.753906 9.347656 41.753906 10.003906 C 41.753906 10.699219 40.554688 12.542969 38.007812 14.011719 C 36.546875 14.847656 34.878906 15.507812 33.078125 15.964844 L 32.136719 14.917969 C 29.492188 11.875 29.496094 8.125 32.144531 5.082031 Z M 33.195312 4.546875 L 32.480469 5.378906 C 29.980469 8.25 29.976562 11.75 32.46875 14.617188 L 33.226562 15.460938 C 34.824219 15.058594 36.34375 14.410156 37.785156 13.625 C 38.910156 12.972656 39.835938 12.207031 40.496094 11.429688 C 41.011719 10.816406 41.308594 10.25 41.308594 10.003906 C 41.246094 9.398438 40.804688 8.914062 40.425781 8.46875 C 39.679688 7.625 38.75 6.984375 37.792969 6.40625 C 36.351562 5.578125 34.796875 4.980469 33.195312 4.546875 Z M 34.050781 7.84375 C 34.980469 7.84375 35.785156 8.382812 35.785156 9.148438 C 35.785156 9.917969 34.980469 10.453125 34.050781 10.453125 C 33.125 10.453125 32.320312 9.917969 32.320312 9.148438 C 32.320312 8.382812 33.125 7.84375 34.050781 7.84375 Z M 34.050781 8.292969 C 33.34375 8.292969 32.765625 8.675781 32.765625 9.148438 C 32.765625 9.621094 33.34375 10.003906 34.050781 10.003906 C 34.761719 10.003906 35.335938 9.621094 35.335938 9.148438 C 35.335938 8.675781 34.761719 8.292969 34.050781 8.292969 Z M 34.050781 8.292969 "/>
</g>
<g clip-path="url(#clip11)" clip-rule="nonzero">
<path style=" stroke:none;fill-rule:nonzero;fill:rgb(100%,100%,100%);fill-opacity:1;" d="M 27.585938 34.023438 C 27.585938 31.992188 28.390625 30 29.921875 28.246094 L 30.53125 27.535156 C 29.25 27.332031 27.945312 27.203125 26.628906 27.15625 C 24.867188 26.25 22.246094 25.179688 19.21875 24.835938 L 17.359375 24.609375 L 18.433594 27.917969 C 15.089844 28.671875 12.140625 30.210938 10.1875 31.265625 C 9.808594 31.054688 9.414062 30.851562 9 30.648438 C 5.8125 29.097656 2.371094 28.949219 2.226562 28.941406 L 0.667969 28.886719 L 0.882812 29.921875 C 0.90625 30.027344 1.425781 32.3125 3.421875 34.011719 C 1.425781 35.714844 0.90625 37.996094 0.882812 38.105469 L 0.667969 39.15625 L 2.226562 39.082031 C 2.371094 39.078125 5.8125 38.929688 9 37.378906 C 9.40625 37.179688 9.792969 36.976562 10.167969 36.769531 C 12.125 37.832031 15.074219 39.367188 18.421875 40.125 L 17.359375 43.433594 L 19.21875 43.207031 C 22.226562 42.871094 24.84375 41.796875 26.601562 40.890625 C 27.9375 40.839844 29.261719 40.710938 30.558594 40.503906 L 29.925781 39.800781 C 28.394531 38.046875 27.585938 36.050781 27.585938 34.023438 Z M 27.585938 34.023438 "/>
<path style=" stroke:none;fill-rule:nonzero;fill:rgb(100%,100%,100%);fill-opacity:1;" d="M 17.359375 24.609375 L 19.21875 24.835938 C 22.246094 25.179688 24.867188 26.25 26.628906 27.15625 C 27.945312 27.203125 29.25 27.332031 30.53125 27.535156 L 29.921875 28.246094 C 28.390625 30 27.585938 31.992188 27.585938 34.023438 C 27.585938 36.050781 28.394531 38.046875 29.925781 39.800781 L 30.558594 40.503906 C 29.261719 40.710938 27.9375 40.839844 26.601562 40.890625 C 24.84375 41.796875 22.226562 42.871094 19.21875 43.207031 L 17.359375 43.433594 L 18.421875 40.125 C 15.074219 39.367188 12.125 37.832031 10.167969 36.769531 C 9.792969 36.976562 9.40625 37.179688 9 37.378906 C 5.8125 38.929688 2.371094 39.078125 2.226562 39.082031 L 0.667969 39.15625 L 0.882812 38.105469 C 0.90625 37.996094 1.425781 35.714844 3.421875 34.011719 C 1.425781 32.3125 0.90625 30.027344 0.882812 29.921875 L 0.667969 28.886719 L 2.226562 28.941406 C 2.371094 28.949219 5.8125 29.097656 9 30.648438 C 9.414062 30.851562 9.808594 31.054688 10.1875 31.265625 C 12.140625 30.210938 15.089844 28.671875 18.433594 27.917969 Z M 18.003906 25.140625 L 18.859375 27.777344 L 19.011719 28.246094 L 18.53125 28.355469 C 15.828125 28.964844 13.503906 29.980469 10.398438 31.660156 L 10.183594 31.777344 L 9.96875 31.65625 C 9.597656 31.453125 9.210938 31.25 8.804688 31.050781 C 7.445312 30.390625 5.9375 29.9375 4.394531 29.65625 C 3.84375 29.558594 3.324219 29.484375 2.855469 29.4375 C 2.558594 29.410156 2.335938 29.394531 2.210938 29.390625 L 1.222656 29.355469 L 1.320312 29.824219 C 1.335938 29.902344 1.375 30.042969 1.433594 30.226562 C 1.53125 30.523438 1.65625 30.84375 1.816406 31.175781 C 2.265625 32.109375 2.886719 32.96875 3.710938 33.671875 L 4.113281 34.011719 L 3.710938 34.355469 C 3.335938 34.675781 3 35.03125 2.699219 35.417969 C 2.238281 36.015625 1.878906 36.65625 1.617188 37.300781 C 1.523438 37.53125 1.449219 37.742188 1.390625 37.9375 C 1.371094 38.007812 1.351562 38.070312 1.339844 38.125 C 1.324219 38.183594 1.332031 38.15625 1.320312 38.203125 L 1.222656 38.679688 L 2.210938 38.636719 C 2.335938 38.628906 2.558594 38.617188 2.855469 38.585938 C 3.324219 38.539062 3.84375 38.46875 4.394531 38.367188 C 5.9375 38.089844 7.445312 37.636719 8.804688 36.972656 C 9.203125 36.78125 9.585938 36.582031 9.949219 36.378906 L 10.164062 36.257812 L 10.382812 36.375 C 13.488281 38.058594 15.816406 39.074219 18.519531 39.6875 L 19 39.796875 L 18.851562 40.261719 L 18 42.90625 L 19.167969 42.765625 C 21.707031 42.476562 24.152344 41.648438 26.398438 40.492188 L 26.484375 40.449219 L 26.585938 40.445312 C 27.613281 40.398438 28.644531 40.328125 29.664062 40.179688 L 29.585938 40.09375 C 27.988281 38.261719 27.140625 36.164062 27.140625 34.023438 C 27.136719 31.878906 27.984375 29.785156 29.582031 27.953125 L 29.660156 27.863281 C 28.648438 27.703125 27.628906 27.65625 26.613281 27.601562 L 26.511719 27.597656 L 26.425781 27.554688 C 24.179688 26.398438 21.722656 25.570312 19.164062 25.28125 Z M 18.003906 25.140625 "/>
</g>
<g clip-path="url(#clip12)" clip-rule="nonzero">
<path style=" stroke:none;fill-rule:nonzero;fill:rgb(100%,100%,100%);fill-opacity:1;" d="M 40.757812 32.191406 C 40.289062 31.660156 39.433594 30.859375 38.015625 30.035156 C 36.542969 29.1875 34.859375 28.519531 33.039062 28.058594 L 32.144531 29.101562 C 29.496094 32.140625 29.492188 35.894531 32.136719 38.933594 L 33.078125 39.980469 C 34.878906 39.523438 36.546875 38.863281 38.007812 38.03125 C 40.554688 36.558594 41.753906 34.71875 41.753906 34.023438 C 41.753906 33.363281 41.113281 32.589844 40.757812 32.191406 Z M 34.050781 34.023438 C 33.34375 34.023438 32.765625 33.640625 32.765625 33.164062 C 32.765625 32.695312 33.34375 32.3125 34.050781 32.3125 C 34.761719 32.3125 35.335938 32.695312 35.335938 33.164062 C 35.335938 33.640625 34.761719 34.023438 34.050781 34.023438 Z M 34.050781 34.023438 "/>
<path style=" stroke:none;fill-rule:nonzero;fill:rgb(100%,100%,100%);fill-opacity:1;" d="M 33.039062 28.058594 C 34.859375 28.519531 36.542969 29.1875 38.015625 30.035156 C 39.433594 30.859375 40.289062 31.660156 40.757812 32.191406 C 41.113281 32.589844 41.753906 33.363281 41.753906 34.023438 C 41.753906 34.71875 40.554688 36.558594 38.007812 38.03125 C 36.546875 38.863281 34.878906 39.523438 33.078125 39.980469 L 32.136719 38.933594 C 29.492188 35.894531 29.496094 32.140625 32.144531 29.101562 Z M 33.195312 28.5625 L 32.480469 29.394531 C 29.980469 32.265625 29.976562 35.769531 32.46875 38.636719 L 33.226562 39.476562 C 34.824219 39.074219 36.34375 38.429688 37.785156 37.640625 C 38.910156 36.992188 39.835938 36.222656 40.496094 35.445312 C 41.011719 34.832031 41.308594 34.265625 41.308594 34.023438 C 41.246094 33.417969 40.804688 32.929688 40.425781 32.488281 C 39.679688 31.644531 38.75 31 37.792969 30.425781 C 36.351562 29.597656 34.796875 28.996094 33.195312 28.5625 Z M 34.050781 31.863281 C 34.980469 31.863281 35.785156 32.398438 35.785156 33.164062 C 35.785156 33.933594 34.980469 34.46875 34.050781 34.46875 C 33.125 34.46875 32.320312 33.933594 32.320312 33.164062 C 32.320312 32.398438 33.125 31.863281 34.050781 31.863281 Z M 34.050781 32.3125 C 33.34375 32.3125 32.765625 32.695312 32.765625 33.164062 C 32.765625 33.640625 33.34375 34.023438 34.050781 34.023438 C 34.761719 34.023438 35.335938 33.640625 35.335938 33.164062 C 35.335938 32.695312 34.761719 32.3125 34.050781 32.3125 Z M 34.050781 32.3125 "/>
</g>
</g>
<mask id="mask1">
  <g filter="url(#alpha)">
<rect x="0" y="0" width="226.152" height="380.633" style="fill:rgb(0%,0%,0%);fill-opacity:0.45;stroke:none;"/>
  </g>
</mask>
<clipPath id="clip14">
  <path d="M 0.667969 0.0390625 L 31 0.0390625 L 31 18.867188 L 0.667969 18.867188 Z M 0.667969 0.0390625 "/>
</clipPath>
<clipPath id="clip15">
  <path d="M 30 3 L 41.753906 3 L 41.753906 16 L 30 16 Z M 30 3 "/>
</clipPath>
<clipPath id="clip13">
  <rect x="0" y="0" width="42" height="19"/>
</clipPath>
<g id="surface11" clip-path="url(#clip13)">
<g clip-path="url(#clip14)" clip-rule="nonzero">
<path style=" stroke:none;fill-rule:nonzero;fill:rgb(0%,0%,0%);fill-opacity:1;" d="M 27.585938 9.453125 C 27.585938 7.425781 28.390625 5.433594 29.921875 3.675781 L 30.53125 2.96875 C 29.25 2.765625 27.945312 2.636719 26.628906 2.585938 C 24.867188 1.683594 22.246094 0.609375 19.21875 0.269531 L 17.359375 0.0390625 L 18.433594 3.347656 C 15.089844 4.105469 12.140625 5.640625 10.1875 6.699219 C 9.808594 6.488281 9.414062 6.28125 9 6.082031 C 5.8125 4.527344 2.371094 4.378906 2.226562 4.375 L 0.667969 4.320312 L 0.882812 5.351562 C 0.90625 5.460938 1.425781 7.746094 3.421875 9.445312 C 1.425781 11.144531 0.90625 13.429688 0.882812 13.539062 L 0.667969 14.589844 L 2.226562 14.515625 C 2.371094 14.507812 5.8125 14.359375 9 12.808594 C 9.40625 12.613281 9.792969 12.410156 10.167969 12.199219 C 12.125 13.261719 15.074219 14.800781 18.421875 15.554688 L 17.359375 18.867188 L 19.21875 18.640625 C 22.226562 18.300781 24.84375 17.230469 26.601562 16.324219 C 27.9375 16.273438 29.261719 16.144531 30.558594 15.9375 L 29.925781 15.230469 C 28.394531 13.476562 27.585938 11.484375 27.585938 9.453125 Z M 27.585938 9.453125 "/>
</g>
<g clip-path="url(#clip15)" clip-rule="nonzero">
<path style=" stroke:none;fill-rule:nonzero;fill:rgb(0%,0%,0%);fill-opacity:1;" d="M 40.757812 7.621094 C 40.289062 7.09375 39.433594 6.289062 38.015625 5.46875 C 36.542969 4.621094 34.859375 3.953125 33.039062 3.488281 L 32.144531 4.535156 C 29.496094 7.574219 29.492188 11.324219 32.136719 14.367188 L 33.078125 15.414062 C 34.878906 14.957031 36.546875 14.296875 38.007812 13.460938 C 40.554688 11.992188 41.753906 10.148438 41.753906 9.453125 C 41.753906 8.796875 41.113281 8.023438 40.757812 7.621094 Z M 34.050781 9.453125 C 33.34375 9.453125 32.765625 9.070312 32.765625 8.597656 C 32.765625 8.125 33.34375 7.742188 34.050781 7.742188 C 34.761719 7.742188 35.335938 8.125 35.335938 8.597656 C 35.335938 9.070312 34.761719 9.453125 34.050781 9.453125 Z M 34.050781 9.453125 "/>
</g>
</g>
<mask id="mask2">
  <g filter="url(#alpha)">
<rect x="0" y="0" width="226.152" height="380.633" style="fill:rgb(0%,0%,0%);fill-opacity:0.45;stroke:none;"/>
  </g>
</mask>
<clipPath id="clip17">
  <path d="M 0.667969 26 L 41.75 26 L 41.75 43.714844 L 0.667969 43.714844 Z M 0.667969 26 "/>
</clipPath>
<clipPath id="clip18">
  <path d="M 0.667969 0.0742188 L 41.75 0.0742188 L 41.75 18 L 0.667969 18 Z M 0.667969 0.0742188 "/>
</clipPath>
<clipPath id="clip16">
  <rect x="0" y="0" width="42" height="44"/>
</clipPath>
<g id="surface14" clip-path="url(#clip16)">
<g clip-path="url(#clip17)" clip-rule="nonzero">
<path style=" stroke:none;fill-rule:nonzero;fill:rgb(100%,100%,100%);fill-opacity:1;" d="M 41.605469 36.65625 L 37.25 36.65625 C 37.023438 36.65625 36.878906 36.414062 36.878906 36.089844 C 36.878906 35.847656 36.960938 35.703125 37.105469 35.558594 L 41.054688 32.757812 C 41.136719 32.707031 41.183594 32.578125 41.183594 32.433594 C 41.183594 32.335938 41.152344 32.238281 41.105469 32.15625 C 41.105469 32.15625 36.605469 26.265625 26.972656 26.007812 L 26.972656 34.148438 L 24.738281 34.148438 L 24.738281 26.6875 L 23.410156 26.6875 L 23.410156 34.164062 L 21.175781 34.164062 L 21.175781 28.046875 L 19.851562 28.046875 L 19.851562 34.179688 L 17.617188 34.179688 L 17.617188 29.390625 L 16.289062 29.390625 L 16.289062 34.164062 L 14.054688 34.164062 L 14.054688 30.75 L 12.726562 30.75 L 12.726562 34.164062 L 10.703125 34.164062 L 0.667969 27.027344 L 4.84375 34.878906 L 0.667969 42.777344 L 10.769531 35.589844 L 12.710938 35.589844 L 12.710938 39.039062 L 14.039062 39.039062 L 14.039062 35.589844 L 16.273438 35.589844 L 16.273438 40.363281 L 17.597656 40.363281 L 17.597656 35.589844 L 19.832031 35.589844 L 19.832031 41.726562 L 21.160156 41.726562 L 21.160156 35.589844 L 23.394531 35.589844 L 23.394531 43.066406 L 24.722656 43.066406 L 24.722656 35.589844 L 26.957031 35.589844 L 26.957031 43.714844 C 32.183594 43.632812 37.542969 41.949219 41.71875 36.996094 C 41.75 36.964844 41.75 36.902344 41.75 36.851562 C 41.75 36.738281 41.671875 36.65625 41.605469 36.65625 Z M 34.144531 34.035156 C 33.089844 34.035156 32.199219 33.128906 32.199219 31.996094 C 32.199219 30.894531 33.105469 29.957031 34.144531 29.957031 C 35.195312 29.957031 36.085938 30.863281 36.085938 31.996094 C 36.101562 33.097656 35.195312 34.035156 34.144531 34.035156 Z M 34.144531 34.035156 "/>
<path style=" stroke:none;fill-rule:nonzero;fill:rgb(100%,100%,100%);fill-opacity:1;" d="M 26.972656 26.007812 C 36.605469 26.265625 41.105469 32.15625 41.105469 32.15625 C 41.152344 32.238281 41.183594 32.335938 41.183594 32.433594 C 41.183594 32.578125 41.136719 32.707031 41.054688 32.757812 L 37.105469 35.558594 C 36.960938 35.703125 36.878906 35.847656 36.878906 36.089844 C 36.878906 36.414062 37.023438 36.65625 37.25 36.65625 L 41.605469 36.65625 C 41.671875 36.65625 41.75 36.738281 41.75 36.851562 C 41.75 36.902344 41.75 36.964844 41.71875 36.996094 C 37.542969 41.949219 32.183594 43.632812 26.957031 43.714844 L 26.957031 35.589844 L 24.722656 35.589844 L 24.722656 43.066406 L 23.394531 43.066406 L 23.394531 35.589844 L 21.160156 35.589844 L 21.160156 41.726562 L 19.832031 41.726562 L 19.832031 35.589844 L 17.597656 35.589844 L 17.597656 40.363281 L 16.273438 40.363281 L 16.273438 35.589844 L 14.039062 35.589844 L 14.039062 39.039062 L 12.710938 39.039062 L 12.710938 35.589844 L 10.769531 35.589844 L 0.667969 42.777344 L 4.84375 34.878906 L 0.667969 27.027344 L 10.703125 34.164062 L 12.726562 34.164062 L 12.726562 30.75 L 14.054688 30.75 L 14.054688 34.164062 L 16.289062 34.164062 L 16.289062 29.390625 L 17.617188 29.390625 L 17.617188 34.179688 L 19.851562 34.179688 L 19.851562 28.046875 L 21.175781 28.046875 L 21.175781 34.164062 L 23.410156 34.164062 L 23.410156 26.6875 L 24.738281 26.6875 L 24.738281 34.148438 L 26.972656 34.148438 Z M 27.457031 26.511719 L 27.457031 34.632812 L 24.253906 34.632812 L 24.253906 27.171875 L 23.898438 27.171875 L 23.898438 34.652344 L 20.691406 34.652344 L 20.691406 28.53125 L 20.335938 28.53125 L 20.335938 34.667969 L 17.128906 34.667969 L 17.128906 29.875 L 16.773438 29.875 L 16.773438 34.652344 L 13.570312 34.652344 L 13.570312 31.234375 L 13.214844 31.234375 L 13.214844 34.652344 L 10.546875 34.652344 L 10.421875 34.5625 L 2.0625 28.613281 L 5.273438 34.648438 L 5.394531 34.875 L 5.273438 35.105469 L 2.054688 41.195312 L 10.488281 35.195312 L 10.613281 35.105469 L 13.195312 35.105469 L 13.195312 38.550781 L 13.550781 38.550781 L 13.550781 35.105469 L 16.757812 35.105469 L 16.757812 39.878906 L 17.113281 39.878906 L 17.113281 35.105469 L 20.320312 35.105469 L 20.320312 41.238281 L 20.675781 41.238281 L 20.675781 35.105469 L 23.878906 35.105469 L 23.878906 42.582031 L 24.234375 42.582031 L 24.234375 35.105469 L 27.441406 35.105469 L 27.441406 43.210938 C 32.867188 43.078125 37.28125 41.046875 40.945312 37.144531 L 37.25 37.144531 C 36.703125 37.144531 36.394531 36.65625 36.394531 36.089844 C 36.394531 35.730469 36.515625 35.460938 36.761719 35.214844 L 36.789062 35.183594 L 36.824219 35.160156 L 40.691406 32.417969 L 40.671875 32.394531 C 40.628906 32.34375 40.578125 32.285156 40.515625 32.214844 C 40.339844 32.011719 40.125 31.789062 39.875 31.542969 C 39.148438 30.84375 38.269531 30.144531 37.230469 29.488281 C 34.304688 27.644531 30.90625 26.660156 27.457031 26.511719 Z M 34.144531 29.472656 C 35.476562 29.472656 36.570312 30.609375 36.570312 31.988281 C 36.589844 33.351562 35.472656 34.523438 34.144531 34.523438 C 32.808594 34.523438 31.714844 33.382812 31.714844 31.996094 C 31.714844 30.636719 32.828125 29.472656 34.144531 29.472656 Z M 34.144531 29.957031 C 33.105469 29.957031 32.199219 30.894531 32.199219 31.996094 C 32.199219 33.128906 33.089844 34.035156 34.144531 34.035156 C 35.195312 34.035156 36.101562 33.097656 36.085938 31.996094 C 36.085938 30.863281 35.195312 29.957031 34.144531 29.957031 Z M 34.144531 29.957031 "/>
</g>
<g clip-path="url(#clip18)" clip-rule="nonzero">
<path style=" stroke:none;fill-rule:nonzero;fill:rgb(100%,100%,100%);fill-opacity:1;" d="M 41.605469 10.726562 L 37.25 10.726562 C 37.023438 10.726562 36.878906 10.484375 36.878906 10.160156 C 36.878906 9.917969 36.960938 9.769531 37.105469 9.625 L 41.054688 6.824219 C 41.136719 6.777344 41.183594 6.648438 41.183594 6.5 C 41.183594 6.402344 41.152344 6.308594 41.105469 6.226562 C 41.105469 6.226562 36.605469 0.332031 26.972656 0.0742188 L 26.972656 8.21875 L 24.738281 8.21875 L 24.738281 0.753906 L 23.410156 0.753906 L 23.410156 8.234375 L 21.175781 8.234375 L 21.175781 2.113281 L 19.851562 2.113281 L 19.851562 8.25 L 17.617188 8.25 L 17.617188 3.457031 L 16.289062 3.457031 L 16.289062 8.234375 L 14.054688 8.234375 L 14.054688 4.816406 L 12.726562 4.816406 L 12.726562 8.234375 L 10.703125 8.234375 L 0.667969 1.09375 L 4.84375 8.945312 L 0.667969 16.84375 L 10.769531 9.65625 L 12.710938 9.65625 L 12.710938 13.105469 L 14.039062 13.105469 L 14.039062 9.65625 L 16.273438 9.65625 L 16.273438 14.433594 L 17.597656 14.433594 L 17.597656 9.65625 L 19.832031 9.65625 L 19.832031 15.792969 L 21.160156 15.792969 L 21.160156 9.65625 L 23.394531 9.65625 L 23.394531 17.136719 L 24.722656 17.136719 L 24.722656 9.65625 L 26.957031 9.65625 L 26.957031 17.785156 C 32.183594 17.703125 37.542969 16.019531 41.71875 11.066406 C 41.75 11.03125 41.75 10.96875 41.75 10.921875 C 41.75 10.808594 41.671875 10.726562 41.605469 10.726562 Z M 34.144531 8.101562 C 33.089844 8.101562 32.199219 7.195312 32.199219 6.0625 C 32.199219 4.964844 33.105469 4.023438 34.144531 4.023438 C 35.195312 4.023438 36.085938 4.929688 36.085938 6.0625 C 36.101562 7.164062 35.195312 8.101562 34.144531 8.101562 Z M 34.144531 8.101562 "/>
<path style=" stroke:none;fill-rule:nonzero;fill:rgb(100%,100%,100%);fill-opacity:1;" d="M 26.972656 0.0742188 C 36.605469 0.332031 41.105469 6.226562 41.105469 6.226562 C 41.152344 6.308594 41.183594 6.402344 41.183594 6.5 C 41.183594 6.648438 41.136719 6.777344 41.054688 6.824219 L 37.105469 9.625 C 36.960938 9.769531 36.878906 9.917969 36.878906 10.160156 C 36.878906 10.484375 37.023438 10.726562 37.25 10.726562 L 41.605469 10.726562 C 41.671875 10.726562 41.75 10.808594 41.75 10.921875 C 41.75 10.96875 41.75 11.03125 41.71875 11.066406 C 37.542969 16.019531 32.183594 17.703125 26.957031 17.785156 L 26.957031 9.65625 L 24.722656 9.65625 L 24.722656 17.136719 L 23.394531 17.136719 L 23.394531 9.65625 L 21.160156 9.65625 L 21.160156 15.792969 L 19.832031 15.792969 L 19.832031 9.65625 L 17.597656 9.65625 L 17.597656 14.433594 L 16.273438 14.433594 L 16.273438 9.65625 L 14.039062 9.65625 L 14.039062 13.105469 L 12.710938 13.105469 L 12.710938 9.65625 L 10.769531 9.65625 L 0.667969 16.84375 L 4.84375 8.945312 L 0.667969 1.09375 L 10.703125 8.234375 L 12.726562 8.234375 L 12.726562 4.816406 L 14.054688 4.816406 L 14.054688 8.234375 L 16.289062 8.234375 L 16.289062 3.457031 L 17.617188 3.457031 L 17.617188 8.25 L 19.851562 8.25 L 19.851562 2.113281 L 21.175781 2.113281 L 21.175781 8.234375 L 23.410156 8.234375 L 23.410156 0.753906 L 24.738281 0.753906 L 24.738281 8.21875 L 26.972656 8.21875 Z M 27.457031 0.582031 L 27.457031 8.703125 L 24.253906 8.703125 L 24.253906 1.238281 L 23.898438 1.238281 L 23.898438 8.71875 L 20.691406 8.71875 L 20.691406 2.601562 L 20.335938 2.601562 L 20.335938 8.734375 L 17.128906 8.734375 L 17.128906 3.945312 L 16.773438 3.945312 L 16.773438 8.71875 L 13.570312 8.71875 L 13.570312 5.304688 L 13.214844 5.304688 L 13.214844 8.71875 L 10.546875 8.71875 L 10.421875 8.628906 L 2.0625 2.683594 L 5.273438 8.71875 L 5.394531 8.945312 L 5.273438 9.171875 L 2.054688 15.261719 L 10.488281 9.261719 L 10.613281 9.171875 L 13.195312 9.171875 L 13.195312 12.621094 L 13.550781 12.621094 L 13.550781 9.171875 L 16.757812 9.171875 L 16.757812 13.945312 L 17.113281 13.945312 L 17.113281 9.171875 L 20.320312 9.171875 L 20.320312 15.308594 L 20.675781 15.308594 L 20.675781 9.171875 L 23.878906 9.171875 L 23.878906 16.652344 L 24.234375 16.652344 L 24.234375 9.171875 L 27.441406 9.171875 L 27.441406 17.28125 C 32.867188 17.148438 37.28125 15.113281 40.945312 11.210938 L 37.25 11.210938 C 36.703125 11.210938 36.394531 10.726562 36.394531 10.160156 C 36.394531 9.796875 36.515625 9.527344 36.761719 9.28125 L 36.789062 9.253906 L 36.824219 9.230469 L 40.691406 6.488281 L 40.671875 6.464844 C 40.628906 6.414062 40.578125 6.351562 40.515625 6.28125 C 40.339844 6.082031 40.125 5.855469 39.875 5.613281 C 39.148438 4.914062 38.269531 4.210938 37.230469 3.558594 C 34.304688 1.714844 30.90625 0.726562 27.457031 0.582031 Z M 34.144531 3.539062 C 35.476562 3.539062 36.570312 4.675781 36.570312 6.058594 C 36.589844 7.421875 35.472656 8.589844 34.144531 8.589844 C 32.808594 8.589844 31.714844 7.453125 31.714844 6.0625 C 31.714844 4.703125 32.828125 3.539062 34.144531 3.539062 Z M 34.144531 4.023438 C 33.105469 4.023438 32.199219 4.964844 32.199219 6.0625 C 32.199219 7.195312 33.089844 8.101562 34.144531 8.101562 C 35.195312 8.101562 36.101562 7.164062 36.085938 6.0625 C 36.085938 4.929688 35.195312 4.023438 34.144531 4.023438 Z M 34.144531 4.023438 "/>
</g>
</g>
<mask id="mask3">
  <g filter="url(#alpha)">
<rect x="0" y="0" width="226.152" height="380.633" style="fill:rgb(0%,0%,0%);fill-opacity:0.45;stroke:none;"/>
  </g>
</mask>
<clipPath id="clip20">
  <path d="M 0.667969 26 L 41.75 26 L 41.75 45 L 0.667969 45 Z M 0.667969 26 "/>
</clipPath>
<clipPath id="clip21">
  <path d="M 0.667969 0.550781 L 41.75 0.550781 L 41.75 19 L 0.667969 19 Z M 0.667969 0.550781 "/>
</clipPath>
<clipPath id="clip22">
  <path d="M 0.667969 52 L 41.75 52 L 41.75 70.121094 L 0.667969 70.121094 Z M 0.667969 52 "/>
</clipPath>
<clipPath id="clip19">
  <rect x="0" y="0" width="42" height="71"/>
</clipPath>
<g id="surface17" clip-path="url(#clip19)">
<g clip-path="url(#clip20)" clip-rule="nonzero">
<path style=" stroke:none;fill-rule:nonzero;fill:rgb(100%,100%,100%);fill-opacity:1;" d="M 41.605469 37.132812 L 37.25 37.132812 C 37.023438 37.132812 36.878906 36.890625 36.878906 36.566406 C 36.878906 36.324219 36.960938 36.179688 37.105469 36.03125 L 41.054688 33.230469 C 41.136719 33.183594 41.183594 33.054688 41.183594 32.910156 C 41.183594 32.8125 41.152344 32.714844 41.105469 32.632812 C 41.105469 32.632812 36.605469 26.742188 26.972656 26.480469 L 26.972656 34.625 L 24.738281 34.625 L 24.738281 27.164062 L 23.410156 27.164062 L 23.410156 34.640625 L 21.175781 34.640625 L 21.175781 28.523438 L 19.851562 28.523438 L 19.851562 34.65625 L 17.617188 34.65625 L 17.617188 29.863281 L 16.289062 29.863281 L 16.289062 34.640625 L 14.054688 34.640625 L 14.054688 31.226562 L 12.726562 31.226562 L 12.726562 34.640625 L 10.703125 34.640625 L 0.667969 27.5 L 4.84375 35.351562 L 0.667969 43.253906 L 10.769531 36.066406 L 12.710938 36.066406 L 12.710938 39.511719 L 14.039062 39.511719 L 14.039062 36.066406 L 16.273438 36.066406 L 16.273438 40.839844 L 17.597656 40.839844 L 17.597656 36.066406 L 19.832031 36.066406 L 19.832031 42.199219 L 21.160156 42.199219 L 21.160156 36.066406 L 23.394531 36.066406 L 23.394531 43.542969 L 24.722656 43.542969 L 24.722656 36.066406 L 26.957031 36.066406 L 26.957031 44.191406 C 32.183594 44.109375 37.542969 42.425781 41.71875 37.472656 C 41.75 37.441406 41.75 37.375 41.75 37.328125 C 41.75 37.214844 41.671875 37.132812 41.605469 37.132812 Z M 34.144531 34.511719 C 33.089844 34.511719 32.199219 33.605469 32.199219 32.472656 C 32.199219 31.371094 33.105469 30.429688 34.144531 30.429688 C 35.195312 30.429688 36.085938 31.335938 36.085938 32.472656 C 36.101562 33.570312 35.195312 34.511719 34.144531 34.511719 Z M 34.144531 34.511719 "/>
<path style=" stroke:none;fill-rule:nonzero;fill:rgb(100%,100%,100%);fill-opacity:1;" d="M 26.972656 26.480469 C 36.605469 26.742188 41.105469 32.632812 41.105469 32.632812 C 41.152344 32.714844 41.183594 32.8125 41.183594 32.910156 C 41.183594 33.054688 41.136719 33.183594 41.054688 33.230469 L 37.105469 36.03125 C 36.960938 36.179688 36.878906 36.324219 36.878906 36.566406 C 36.878906 36.890625 37.023438 37.132812 37.25 37.132812 L 41.605469 37.132812 C 41.671875 37.132812 41.75 37.214844 41.75 37.328125 C 41.75 37.375 41.75 37.441406 41.71875 37.472656 C 37.542969 42.425781 32.183594 44.109375 26.957031 44.191406 L 26.957031 36.066406 L 24.722656 36.066406 L 24.722656 43.542969 L 23.394531 43.542969 L 23.394531 36.066406 L 21.160156 36.066406 L 21.160156 42.199219 L 19.832031 42.199219 L 19.832031 36.066406 L 17.597656 36.066406 L 17.597656 40.839844 L 16.273438 40.839844 L 16.273438 36.066406 L 14.039062 36.066406 L 14.039062 39.511719 L 12.710938 39.511719 L 12.710938 36.066406 L 10.769531 36.066406 L 0.667969 43.253906 L 4.84375 35.351562 L 0.667969 27.5 L 10.703125 34.640625 L 12.726562 34.640625 L 12.726562 31.226562 L 14.054688 31.226562 L 14.054688 34.640625 L 16.289062 34.640625 L 16.289062 29.863281 L 17.617188 29.863281 L 17.617188 34.65625 L 19.851562 34.65625 L 19.851562 28.523438 L 21.175781 28.523438 L 21.175781 34.640625 L 23.410156 34.640625 L 23.410156 27.164062 L 24.738281 27.164062 L 24.738281 34.625 L 26.972656 34.625 Z M 27.457031 26.988281 L 27.457031 35.109375 L 24.253906 35.109375 L 24.253906 27.648438 L 23.898438 27.648438 L 23.898438 35.125 L 20.691406 35.125 L 20.691406 29.007812 L 20.335938 29.007812 L 20.335938 35.140625 L 17.128906 35.140625 L 17.128906 30.351562 L 16.773438 30.351562 L 16.773438 35.125 L 13.570312 35.125 L 13.570312 31.710938 L 13.214844 31.710938 L 13.214844 35.125 L 10.546875 35.125 L 10.421875 35.035156 L 2.0625 29.089844 L 5.273438 35.125 L 5.394531 35.351562 L 5.273438 35.578125 L 2.054688 41.671875 L 10.488281 35.667969 L 10.613281 35.578125 L 13.195312 35.578125 L 13.195312 39.027344 L 13.550781 39.027344 L 13.550781 35.578125 L 16.757812 35.578125 L 16.757812 40.355469 L 17.113281 40.355469 L 17.113281 35.578125 L 20.320312 35.578125 L 20.320312 41.714844 L 20.675781 41.714844 L 20.675781 35.578125 L 23.878906 35.578125 L 23.878906 43.058594 L 24.234375 43.058594 L 24.234375 35.578125 L 27.441406 35.578125 L 27.441406 43.6875 C 32.867188 43.554688 37.28125 41.523438 40.945312 37.617188 L 37.25 37.617188 C 36.703125 37.617188 36.394531 37.132812 36.394531 36.566406 C 36.394531 36.207031 36.515625 35.9375 36.761719 35.6875 L 36.789062 35.660156 L 36.824219 35.636719 L 40.691406 32.894531 L 40.671875 32.871094 C 40.628906 32.820312 40.578125 32.757812 40.515625 32.6875 C 40.339844 32.488281 40.125 32.265625 39.875 32.019531 C 39.148438 31.320312 38.269531 30.621094 37.230469 29.964844 C 34.304688 28.121094 30.90625 27.136719 27.457031 26.988281 Z M 34.144531 29.945312 C 35.476562 29.945312 36.570312 31.085938 36.570312 32.464844 C 36.589844 33.828125 35.472656 34.996094 34.144531 34.996094 C 32.808594 34.996094 31.714844 33.859375 31.714844 32.472656 C 31.714844 31.113281 32.828125 29.945312 34.144531 29.945312 Z M 34.144531 30.429688 C 33.105469 30.429688 32.199219 31.371094 32.199219 32.472656 C 32.199219 33.605469 33.089844 34.511719 34.144531 34.511719 C 35.195312 34.511719 36.101562 33.570312 36.085938 32.472656 C 36.085938 31.335938 35.195312 30.429688 34.144531 30.429688 Z M 34.144531 30.429688 "/>
</g>
<g clip-path="url(#clip21)" clip-rule="nonzero">
<path style=" stroke:none;fill-rule:nonzero;fill:rgb(100%,100%,100%);fill-opacity:1;" d="M 41.605469 11.203125 L 37.25 11.203125 C 37.023438 11.203125 36.878906 10.957031 36.878906 10.636719 C 36.878906 10.390625 36.960938 10.246094 37.105469 10.101562 L 41.054688 7.300781 C 41.136719 7.25 41.183594 7.121094 41.183594 6.976562 C 41.183594 6.878906 41.152344 6.78125 41.105469 6.703125 C 41.105469 6.703125 36.605469 0.808594 26.972656 0.550781 L 26.972656 8.691406 L 24.738281 8.691406 L 24.738281 1.230469 L 23.410156 1.230469 L 23.410156 8.707031 L 21.175781 8.707031 L 21.175781 2.589844 L 19.851562 2.589844 L 19.851562 8.722656 L 17.617188 8.722656 L 17.617188 3.933594 L 16.289062 3.933594 L 16.289062 8.707031 L 14.054688 8.707031 L 14.054688 5.292969 L 12.726562 5.292969 L 12.726562 8.707031 L 10.703125 8.707031 L 0.667969 1.570312 L 4.84375 9.421875 L 0.667969 17.320312 L 10.769531 10.132812 L 12.710938 10.132812 L 12.710938 13.582031 L 14.039062 13.582031 L 14.039062 10.132812 L 16.273438 10.132812 L 16.273438 14.90625 L 17.597656 14.90625 L 17.597656 10.132812 L 19.832031 10.132812 L 19.832031 16.269531 L 21.160156 16.269531 L 21.160156 10.132812 L 23.394531 10.132812 L 23.394531 17.613281 L 24.722656 17.613281 L 24.722656 10.132812 L 26.957031 10.132812 L 26.957031 18.257812 C 32.183594 18.179688 37.542969 16.496094 41.71875 11.542969 C 41.75 11.507812 41.75 11.445312 41.75 11.394531 C 41.75 11.28125 41.671875 11.203125 41.605469 11.203125 Z M 34.144531 8.578125 C 33.089844 8.578125 32.199219 7.671875 32.199219 6.539062 C 32.199219 5.4375 33.105469 4.5 34.144531 4.5 C 35.195312 4.5 36.085938 5.40625 36.085938 6.539062 C 36.101562 7.640625 35.195312 8.578125 34.144531 8.578125 Z M 34.144531 8.578125 "/>
<path style=" stroke:none;fill-rule:nonzero;fill:rgb(100%,100%,100%);fill-opacity:1;" d="M 26.972656 0.550781 C 36.605469 0.808594 41.105469 6.703125 41.105469 6.703125 C 41.152344 6.78125 41.183594 6.878906 41.183594 6.976562 C 41.183594 7.121094 41.136719 7.25 41.054688 7.300781 L 37.105469 10.101562 C 36.960938 10.246094 36.878906 10.390625 36.878906 10.636719 C 36.878906 10.957031 37.023438 11.203125 37.25 11.203125 L 41.605469 11.203125 C 41.671875 11.203125 41.75 11.28125 41.75 11.394531 C 41.75 11.445312 41.75 11.507812 41.71875 11.542969 C 37.542969 16.496094 32.183594 18.179688 26.957031 18.257812 L 26.957031 10.132812 L 24.722656 10.132812 L 24.722656 17.613281 L 23.394531 17.613281 L 23.394531 10.132812 L 21.160156 10.132812 L 21.160156 16.269531 L 19.832031 16.269531 L 19.832031 10.132812 L 17.597656 10.132812 L 17.597656 14.90625 L 16.273438 14.90625 L 16.273438 10.132812 L 14.039062 10.132812 L 14.039062 13.582031 L 12.710938 13.582031 L 12.710938 10.132812 L 10.769531 10.132812 L 0.667969 17.320312 L 4.84375 9.421875 L 0.667969 1.570312 L 10.703125 8.707031 L 12.726562 8.707031 L 12.726562 5.292969 L 14.054688 5.292969 L 14.054688 8.707031 L 16.289062 8.707031 L 16.289062 3.933594 L 17.617188 3.933594 L 17.617188 8.722656 L 19.851562 8.722656 L 19.851562 2.589844 L 21.175781 2.589844 L 21.175781 8.707031 L 23.410156 8.707031 L 23.410156 1.230469 L 24.738281 1.230469 L 24.738281 8.691406 L 26.972656 8.691406 Z M 27.457031 1.058594 L 27.457031 9.179688 L 24.253906 9.179688 L 24.253906 1.714844 L 23.898438 1.714844 L 23.898438 9.195312 L 20.691406 9.195312 L 20.691406 3.074219 L 20.335938 3.074219 L 20.335938 9.210938 L 17.128906 9.210938 L 17.128906 4.417969 L 16.773438 4.417969 L 16.773438 9.195312 L 13.570312 9.195312 L 13.570312 5.777344 L 13.214844 5.777344 L 13.214844 9.195312 L 10.546875 9.195312 L 10.421875 9.105469 L 2.0625 3.15625 L 5.273438 9.191406 L 5.394531 9.421875 L 5.273438 9.648438 L 2.054688 15.738281 L 10.488281 9.738281 L 10.613281 9.648438 L 13.195312 9.648438 L 13.195312 13.09375 L 13.550781 13.09375 L 13.550781 9.648438 L 16.757812 9.648438 L 16.757812 14.421875 L 17.113281 14.421875 L 17.113281 9.648438 L 20.320312 9.648438 L 20.320312 15.78125 L 20.675781 15.78125 L 20.675781 9.648438 L 23.878906 9.648438 L 23.878906 17.125 L 24.234375 17.125 L 24.234375 9.648438 L 27.441406 9.648438 L 27.441406 17.753906 C 32.867188 17.621094 37.28125 15.589844 40.945312 11.6875 L 37.25 11.6875 C 36.703125 11.6875 36.394531 11.199219 36.394531 10.636719 C 36.394531 10.273438 36.515625 10.003906 36.761719 9.757812 L 36.789062 9.726562 L 36.824219 9.703125 L 40.691406 6.960938 L 40.671875 6.941406 C 40.628906 6.886719 40.578125 6.828125 40.515625 6.757812 C 40.339844 6.558594 40.125 6.332031 39.875 6.089844 C 39.148438 5.386719 38.269531 4.6875 37.230469 4.03125 C 34.304688 2.1875 30.90625 1.203125 27.457031 1.058594 Z M 34.144531 4.015625 C 35.476562 4.015625 36.570312 5.152344 36.570312 6.53125 C 36.589844 7.898438 35.472656 9.0625 34.144531 9.0625 C 32.808594 9.0625 31.714844 7.925781 31.714844 6.539062 C 31.714844 5.179688 32.828125 4.015625 34.144531 4.015625 Z M 34.144531 4.5 C 33.105469 4.5 32.199219 5.4375 32.199219 6.539062 C 32.199219 7.671875 33.089844 8.578125 34.144531 8.578125 C 35.195312 8.578125 36.101562 7.640625 36.085938 6.539062 C 36.085938 5.40625 35.195312 4.5 34.144531 4.5 Z M 34.144531 4.5 "/>
</g>
<g clip-path="url(#clip22)" clip-rule="nonzero">
<path style=" stroke:none;fill-rule:nonzero;fill:rgb(100%,100%,100%);fill-opacity:1;" d="M 41.605469 63.066406 L 37.25 63.066406 C 37.023438 63.066406 36.878906 62.820312 36.878906 62.5 C 36.878906 62.253906 36.960938 62.109375 37.105469 61.964844 L 41.054688 59.164062 C 41.136719 59.117188 41.183594 58.984375 41.183594 58.839844 C 41.183594 58.742188 41.152344 58.644531 41.105469 58.566406 C 41.105469 58.566406 36.605469 52.671875 26.972656 52.414062 L 26.972656 60.554688 L 24.738281 60.554688 L 24.738281 53.09375 L 23.410156 53.09375 L 23.410156 60.574219 L 21.175781 60.574219 L 21.175781 54.453125 L 19.851562 54.453125 L 19.851562 60.589844 L 17.617188 60.589844 L 17.617188 55.796875 L 16.289062 55.796875 L 16.289062 60.574219 L 14.054688 60.574219 L 14.054688 57.15625 L 12.726562 57.15625 L 12.726562 60.574219 L 10.703125 60.574219 L 0.667969 53.433594 L 4.84375 61.285156 L 0.667969 69.183594 L 10.769531 61.996094 L 12.710938 61.996094 L 12.710938 65.445312 L 14.039062 65.445312 L 14.039062 61.996094 L 16.273438 61.996094 L 16.273438 66.773438 L 17.597656 66.773438 L 17.597656 61.996094 L 19.832031 61.996094 L 19.832031 68.132812 L 21.160156 68.132812 L 21.160156 61.996094 L 23.394531 61.996094 L 23.394531 69.476562 L 24.722656 69.476562 L 24.722656 61.996094 L 26.957031 61.996094 L 26.957031 70.125 C 32.183594 70.042969 37.542969 68.359375 41.71875 63.40625 C 41.75 63.371094 41.75 63.308594 41.75 63.261719 C 41.75 63.144531 41.671875 63.066406 41.605469 63.066406 Z M 34.144531 60.441406 C 33.089844 60.441406 32.199219 59.535156 32.199219 58.402344 C 32.199219 57.300781 33.105469 56.363281 34.144531 56.363281 C 35.195312 56.363281 36.085938 57.269531 36.085938 58.402344 C 36.101562 59.503906 35.195312 60.441406 34.144531 60.441406 Z M 34.144531 60.441406 "/>
<path style=" stroke:none;fill-rule:nonzero;fill:rgb(100%,100%,100%);fill-opacity:1;" d="M 26.972656 52.414062 C 36.605469 52.671875 41.105469 58.566406 41.105469 58.566406 C 41.152344 58.644531 41.183594 58.742188 41.183594 58.839844 C 41.183594 58.984375 41.136719 59.117188 41.054688 59.164062 L 37.105469 61.964844 C 36.960938 62.109375 36.878906 62.253906 36.878906 62.5 C 36.878906 62.820312 37.023438 63.066406 37.25 63.066406 L 41.605469 63.066406 C 41.671875 63.066406 41.75 63.144531 41.75 63.261719 C 41.75 63.308594 41.75 63.371094 41.71875 63.40625 C 37.542969 68.359375 32.183594 70.042969 26.957031 70.125 L 26.957031 61.996094 L 24.722656 61.996094 L 24.722656 69.476562 L 23.394531 69.476562 L 23.394531 61.996094 L 21.160156 61.996094 L 21.160156 68.132812 L 19.832031 68.132812 L 19.832031 61.996094 L 17.597656 61.996094 L 17.597656 66.773438 L 16.273438 66.773438 L 16.273438 61.996094 L 14.039062 61.996094 L 14.039062 65.445312 L 12.710938 65.445312 L 12.710938 61.996094 L 10.769531 61.996094 L 0.667969 69.183594 L 4.84375 61.285156 L 0.667969 53.433594 L 10.703125 60.574219 L 12.726562 60.574219 L 12.726562 57.15625 L 14.054688 57.15625 L 14.054688 60.574219 L 16.289062 60.574219 L 16.289062 55.796875 L 17.617188 55.796875 L 17.617188 60.589844 L 19.851562 60.589844 L 19.851562 54.453125 L 21.175781 54.453125 L 21.175781 60.574219 L 23.410156 60.574219 L 23.410156 53.09375 L 24.738281 53.09375 L 24.738281 60.554688 L 26.972656 60.554688 Z M 27.457031 52.921875 L 27.457031 61.042969 L 24.253906 61.042969 L 24.253906 53.578125 L 23.898438 53.578125 L 23.898438 61.058594 L 20.691406 61.058594 L 20.691406 54.9375 L 20.335938 54.9375 L 20.335938 61.074219 L 17.128906 61.074219 L 17.128906 56.285156 L 16.773438 56.285156 L 16.773438 61.058594 L 13.570312 61.058594 L 13.570312 57.640625 L 13.214844 57.640625 L 13.214844 61.058594 L 10.546875 61.058594 L 10.421875 60.96875 L 2.0625 55.023438 L 5.273438 61.058594 L 5.394531 61.285156 L 5.273438 61.511719 L 2.054688 67.601562 L 10.488281 61.601562 L 10.613281 61.511719 L 13.195312 61.511719 L 13.195312 64.960938 L 13.550781 64.960938 L 13.550781 61.511719 L 16.757812 61.511719 L 16.757812 66.285156 L 17.113281 66.285156 L 17.113281 61.511719 L 20.320312 61.511719 L 20.320312 67.644531 L 20.675781 67.644531 L 20.675781 61.511719 L 23.878906 61.511719 L 23.878906 68.992188 L 24.234375 68.992188 L 24.234375 61.511719 L 27.441406 61.511719 L 27.441406 69.621094 C 32.867188 69.484375 37.28125 67.453125 40.945312 63.550781 L 37.25 63.550781 C 36.703125 63.550781 36.394531 63.066406 36.394531 62.5 C 36.394531 62.136719 36.515625 61.867188 36.761719 61.621094 L 36.789062 61.59375 L 36.824219 61.570312 L 40.691406 58.828125 L 40.671875 58.804688 C 40.628906 58.75 40.578125 58.691406 40.515625 58.621094 C 40.339844 58.421875 40.125 58.195312 39.875 57.953125 C 39.148438 57.253906 38.269531 56.550781 37.230469 55.894531 C 34.304688 54.054688 30.90625 53.066406 27.457031 52.921875 Z M 34.144531 55.878906 C 35.476562 55.878906 36.570312 57.015625 36.570312 58.394531 C 36.589844 59.761719 35.472656 60.929688 34.144531 60.929688 C 32.808594 60.929688 31.714844 59.789062 31.714844 58.402344 C 31.714844 57.042969 32.828125 55.878906 34.144531 55.878906 Z M 34.144531 56.363281 C 33.105469 56.363281 32.199219 57.300781 32.199219 58.402344 C 32.199219 59.535156 33.089844 60.441406 34.144531 60.441406 C 35.195312 60.441406 36.101562 59.503906 36.085938 58.402344 C 36.085938 57.269531 35.195312 56.363281 34.144531 56.363281 Z M 34.144531 56.363281 "/>
</g>
</g>
<clipPath id="clip23">
  <path d="M 0 2 L 225.308594 2 L 225.308594 79 L 0 79 Z M 0 2 "/>
</clipPath>
</defs>
<g id="surface1">
<path style="fill-rule:nonzero;fill:rgb(14.901733%,47.059631%,69.802856%);fill-opacity:1;stroke-width:0.99628;stroke-linecap:butt;stroke-linejoin:miter;stroke:rgb(100%,100%,100%);stroke-opacity:1;stroke-miterlimit:10;" d="M -0.000092104 0.000998145 L -0.000092104 -74.71954 L 74.720446 -74.71954 L 74.720446 0.000998145 Z M -0.000092104 0.000998145 " transform="matrix(0.996264,0,0,-0.996264,0.992279,3.352557)"/>
<use xlink:href="#surface5" transform="matrix(1,0,0,1,17,7)"/>
<path style="fill-rule:nonzero;fill:rgb(14.901733%,47.059631%,69.802856%);fill-opacity:1;stroke-width:0.99628;stroke-linecap:butt;stroke-linejoin:miter;stroke:rgb(100%,100%,100%);stroke-opacity:1;stroke-miterlimit:10;" d="M 74.720446 0.000998145 L 74.720446 -74.71954 L 224.161523 -74.71954 L 224.161523 0.000998145 Z M 74.720446 0.000998145 " transform="matrix(0.996264,0,0,-0.996264,0.992279,3.352557)"/>
<g style="fill:rgb(100%,100%,100%);fill-opacity:1;">
  <use xlink:href="#glyph0-1" x="96.916593" y="47.466145"/>
  <use xlink:href="#glyph0-2" x="105.793855" y="47.466145"/>
</g>
<g style="fill:rgb(100%,100%,100%);fill-opacity:1;">
  <use xlink:href="#glyph0-3" x="114.71876" y="47.466145"/>
</g>
<g style="fill:rgb(100%,100%,100%);fill-opacity:1;">
  <use xlink:href="#glyph0-4" x="115.195178" y="47.466145"/>
  <use xlink:href="#glyph0-5" x="125.658517" y="47.466145"/>
</g>
<g style="fill:rgb(100%,100%,100%);fill-opacity:1;">
  <use xlink:href="#glyph0-6" x="142.265667" y="47.466145"/>
</g>
<g style="fill:rgb(100%,100%,100%);fill-opacity:1;">
  <use xlink:href="#glyph0-7" x="155.583546" y="47.466145"/>
  <use xlink:href="#glyph0-8" x="166.997736" y="47.466145"/>
  <use xlink:href="#glyph0-8" x="179.680391" y="47.466145"/>
  <use xlink:href="#glyph0-4" x="192.363045" y="47.466145"/>
</g>
<path style="fill-rule:nonzero;fill:rgb(19.607544%,62.353516%,19.999695%);fill-opacity:0.45;stroke-width:0.99628;stroke-linecap:butt;stroke-linejoin:miter;stroke:rgb(100%,100%,100%);stroke-opacity:1;stroke-miterlimit:10;" d="M -0.000092104 -74.71954 L -0.000092104 -149.440079 L 74.720446 -149.440079 L 74.720446 -74.71954 Z M -0.000092104 -74.71954 " transform="matrix(0.996264,0,0,-0.996264,0.992279,3.352557)"/>
<use xlink:href="#surface8" transform="matrix(1,0,0,1,17,93)" mask="url(#mask0)"/>
<path style="fill-rule:nonzero;fill:rgb(19.607544%,62.353516%,19.999695%);fill-opacity:0.45;stroke-width:0.99628;stroke-linecap:butt;stroke-linejoin:miter;stroke:rgb(100%,100%,100%);stroke-opacity:1;stroke-miterlimit:10;" d="M 74.720446 -74.71954 L 74.720446 -149.440079 L 224.161523 -149.440079 L 224.161523 -74.71954 Z M 74.720446 -74.71954 " transform="matrix(0.996264,0,0,-0.996264,0.992279,3.352557)"/>
<g style="fill:rgb(100%,100%,100%);fill-opacity:0.45;">
  <use xlink:href="#glyph0-6" x="119.594557" y="121.906018"/>
</g>
<g style="fill:rgb(100%,100%,100%);fill-opacity:0.45;">
  <use xlink:href="#glyph0-7" x="132.912436" y="121.906018"/>
  <use xlink:href="#glyph0-8" x="144.326627" y="121.906018"/>
  <use xlink:href="#glyph0-8" x="157.009281" y="121.906018"/>
  <use xlink:href="#glyph0-4" x="169.691935" y="121.906018"/>
</g>
<path style="fill-rule:nonzero;fill:rgb(86.66687%,87.449646%,4.31366%);fill-opacity:0.45;stroke-width:0.99628;stroke-linecap:butt;stroke-linejoin:miter;stroke:rgb(100%,100%,100%);stroke-opacity:1;stroke-miterlimit:10;" d="M -0.000092104 -149.440079 L -0.000092104 -224.160617 L 74.720446 -224.160617 L 74.720446 -149.440079 Z M -0.000092104 -149.440079 " transform="matrix(0.996264,0,0,-0.996264,0.992279,3.352557)"/>
<use xlink:href="#surface11" transform="matrix(1,0,0,1,17,180)" mask="url(#mask1)"/>
<path style="fill-rule:nonzero;fill:rgb(86.66687%,87.449646%,4.31366%);fill-opacity:0.45;stroke-width:0.99628;stroke-linecap:butt;stroke-linejoin:miter;stroke:rgb(100%,100%,100%);stroke-opacity:1;stroke-miterlimit:10;" d="M 74.720446 -149.440079 L 74.720446 -224.160617 L 224.161523 -224.160617 L 224.161523 -149.440079 Z M 74.720446 -149.440079 " transform="matrix(0.996264,0,0,-0.996264,0.992279,3.352557)"/>
<g style="fill:rgb(0%,0%,0%);fill-opacity:0.45;">
  <use xlink:href="#glyph0-9" x="106.119086" y="191.93543"/>
  <use xlink:href="#glyph0-7" x="125.142075" y="191.93543"/>
</g>
<g style="fill:rgb(0%,0%,0%);fill-opacity:0.45;">
  <use xlink:href="#glyph0-10" x="135.921041" y="191.93543"/>
</g>
<g style="fill:rgb(0%,0%,0%);fill-opacity:0.45;">
  <use xlink:href="#glyph0-4" x="147.333246" y="191.93543"/>
  <use xlink:href="#glyph0-8" x="157.796585" y="191.93543"/>
  <use xlink:href="#glyph0-8" x="170.479239" y="191.93543"/>
  <use xlink:href="#glyph0-4" x="183.161893" y="191.93543"/>
</g>
<path style="fill-rule:nonzero;fill:rgb(99.215698%,49.804688%,15.684509%);fill-opacity:0.45;stroke-width:0.99628;stroke-linecap:butt;stroke-linejoin:miter;stroke:rgb(100%,100%,100%);stroke-opacity:1;stroke-miterlimit:10;" d="M -0.000092104 -224.160617 L -0.000092104 -298.881156 L 74.720446 -298.881156 L 74.720446 -224.160617 Z M -0.000092104 -224.160617 " transform="matrix(0.996264,0,0,-0.996264,0.992279,3.352557)"/>
<use xlink:href="#surface14" transform="matrix(1,0,0,1,17,242)" mask="url(#mask2)"/>
<path style="fill-rule:nonzero;fill:rgb(99.215698%,49.804688%,15.684509%);fill-opacity:0.45;stroke-width:0.99628;stroke-linecap:butt;stroke-linejoin:miter;stroke:rgb(100%,100%,100%);stroke-opacity:1;stroke-miterlimit:10;" d="M 74.720446 -224.160617 L 74.720446 -298.881156 L 224.161523 -298.881156 L 224.161523 -224.160617 Z M 74.720446 -224.160617 " transform="matrix(0.996264,0,0,-0.996264,0.992279,3.352557)"/>
<g style="fill:rgb(100%,100%,100%);fill-opacity:0.45;">
  <use xlink:href="#glyph0-9" x="104.588824" y="270.787758"/>
</g>
<g style="fill:rgb(100%,100%,100%);fill-opacity:0.45;">
  <use xlink:href="#glyph0-11" x="123.135395" y="270.787758"/>
</g>
<g style="fill:rgb(100%,100%,100%);fill-opacity:0.45;">
  <use xlink:href="#glyph0-4" x="123.611813" y="270.787758"/>
  <use xlink:href="#glyph0-12" x="134.075152" y="270.787758"/>
  <use xlink:href="#glyph0-13" x="146.757806" y="270.787758"/>
  <use xlink:href="#glyph0-7" x="153.098141" y="270.787758"/>
</g>
<g style="fill:rgb(100%,100%,100%);fill-opacity:0.45;">
  <use xlink:href="#glyph0-14" x="165.147555" y="270.787758"/>
  <use xlink:href="#glyph0-2" x="175.293282" y="270.787758"/>
  <use xlink:href="#glyph0-4" x="184.694604" y="270.787758"/>
</g>
<path style="fill-rule:nonzero;fill:rgb(83.137512%,16.471863%,18.429565%);fill-opacity:0.45;stroke-width:0.99628;stroke-linecap:butt;stroke-linejoin:miter;stroke:rgb(100%,100%,100%);stroke-opacity:1;stroke-miterlimit:10;" d="M -0.000092104 -298.881156 L -0.000092104 -373.605615 L 74.720446 -373.605615 L 74.720446 -298.881156 Z M -0.000092104 -298.881156 " transform="matrix(0.996264,0,0,-0.996264,0.992279,3.352557)"/>
<use xlink:href="#surface17" transform="matrix(1,0,0,1,17,303)" mask="url(#mask3)"/>
<path style="fill-rule:nonzero;fill:rgb(83.137512%,16.471863%,18.429565%);fill-opacity:0.45;stroke-width:0.99628;stroke-linecap:butt;stroke-linejoin:miter;stroke:rgb(100%,100%,100%);stroke-opacity:1;stroke-miterlimit:10;" d="M 74.720446 -298.881156 L 74.720446 -373.605615 L 224.161523 -373.605615 L 224.161523 -298.881156 Z M 74.720446 -298.881156 " transform="matrix(0.996264,0,0,-0.996264,0.992279,3.352557)"/>
<g style="fill:rgb(100%,100%,100%);fill-opacity:0.45;">
  <use xlink:href="#glyph0-9" x="104.629671" y="345.228627"/>
  <use xlink:href="#glyph0-15" x="123.65266" y="345.228627"/>
  <use xlink:href="#glyph0-16" x="134.749238" y="345.228627"/>
  <use xlink:href="#glyph0-17" x="147.431892" y="345.228627"/>
</g>
<g style="fill:rgb(100%,100%,100%);fill-opacity:0.45;">
  <use xlink:href="#glyph0-15" x="158.208873" y="345.228627"/>
  <use xlink:href="#glyph0-13" x="169.305451" y="345.228627"/>
  <use xlink:href="#glyph0-5" x="175.645786" y="345.228627"/>
  <use xlink:href="#glyph0-4" x="184.650093" y="345.228627"/>
</g>
<g clip-path="url(#clip23)" clip-rule="nonzero">
<path style="fill:none;stroke-width:1.99255;stroke-linecap:butt;stroke-linejoin:miter;stroke:rgb(0%,0%,0%);stroke-opacity:1;stroke-miterlimit:10;" d="M -0.000092104 0.000998145 L -0.000092104 -74.71954 L 224.161523 -74.71954 L 224.161523 0.000998145 Z M -0.000092104 0.000998145 " transform="matrix(0.996264,0,0,-0.996264,0.992279,3.352557)"/>
</g>
</g>
</svg>
